tb/oop/apb.vcd
$date
   Tue Nov 11 09:20:38 2025
$end

$version
  2025.1.1
  $dumpfile ("apb.vcd") 
$end

$timescale
  1ps
$end

$scope module top $end
$var reg 1 ! clk $end
$scope module top_intf $end
$var reg 1 ! PCLK $end
$var reg 1 " PRESETn $end
$var reg 1 # PSEL $end
$var reg 10 $ PADDR $end
$var reg 1 % PWRITE $end
$var reg 32 & PWDATA $end
$var reg 1 ' PENABLE $end
$var reg 1 ( PSLVERR $end
$var reg 1 ) PREADY $end
$var reg 32 * PRDATA $end
$scope module slave_mp $end
$var reg 1 ! PCLK $end
$var reg 1 " PRESETn $end
$var reg 1 # PSEL $end
$var reg 10 $ PADDR $end
$var reg 1 % PWRITE $end
$var reg 32 & PWDATA $end
$var reg 1 ' PENABLE $end
$var reg 1 ( PSLVERR $end
$var reg 1 ) PREADY $end
$var reg 32 * PRDATA $end
$upscope $end
$scope module monitor_mp $end
$var reg 1 ! PCLK $end
$var reg 1 " PRESETn $end
$var reg 1 # PSEL $end
$var reg 10 $ PADDR $end
$var reg 1 % PWRITE $end
$var reg 32 & PWDATA $end
$var reg 1 ' PENABLE $end
$var reg 1 ( PSLVERR $end
$var reg 1 ) PREADY $end
$var reg 32 * PRDATA $end
$upscope $end
$scope module driver_dv $end
$upscope $end
$scope module monitor_dv $end
$upscope $end
$scope module driver_cb $end
$var reg 1 + PSLVERR $end
$var reg 1 , PREADY $end
$var reg 32 - PRDATA $end
$var reg 1 . PENABLE $end
$var reg 32 / PWDATA $end
$var reg 1 0 PWRITE $end
$var reg 10 1 PADDR $end
$var reg 1 2 PSEL $end
$var reg 1 3 PRESETn $end
$upscope $end
$scope module monitor_cb $end
$var reg 1 4 PRESETn $end
$var reg 1 5 PSEL $end
$var reg 10 6 PADDR $end
$var reg 1 7 PWRITE $end
$var reg 32 8 PWDATA $end
$var reg 1 9 PENABLE $end
$var reg 1 : PSLVERR $end
$var reg 1 ; PREADY $end
$var reg 32 < PRDATA $end
$upscope $end
$scope module apb_asserts_dut $end
$scope module intf $end
$var reg 1 ! PCLK $end
$var reg 1 " PRESETn $end
$var reg 1 # PSEL $end
$var reg 10 $ PADDR $end
$var reg 1 % PWRITE $end
$var reg 32 & PWDATA $end
$var reg 1 ' PENABLE $end
$var reg 1 ( PSLVERR $end
$var reg 1 ) PREADY $end
$var reg 32 * PRDATA $end
$upscope $end
$upscope $end
$upscope $end
$scope module t1 $end
$scope module intf $end
$var reg 1 ! PCLK $end
$var reg 1 " PRESETn $end
$var reg 1 # PSEL $end
$var reg 10 $ PADDR $end
$var reg 1 % PWRITE $end
$var reg 32 & PWDATA $end
$var reg 1 ' PENABLE $end
$var reg 1 ( PSLVERR $end
$var reg 1 ) PREADY $end
$var reg 32 * PRDATA $end
$scope module slave_mp $end
$var reg 1 ! PCLK $end
$var reg 1 " PRESETn $end
$var reg 1 # PSEL $end
$var reg 10 $ PADDR $end
$var reg 1 % PWRITE $end
$var reg 32 & PWDATA $end
$var reg 1 ' PENABLE $end
$var reg 1 ( PSLVERR $end
$var reg 1 ) PREADY $end
$var reg 32 * PRDATA $end
$upscope $end
$scope module monitor_mp $end
$var reg 1 ! PCLK $end
$var reg 1 " PRESETn $end
$var reg 1 # PSEL $end
$var reg 10 $ PADDR $end
$var reg 1 % PWRITE $end
$var reg 32 & PWDATA $end
$var reg 1 ' PENABLE $end
$var reg 1 ( PSLVERR $end
$var reg 1 ) PREADY $end
$var reg 32 * PRDATA $end
$upscope $end
$scope module driver_dv $end
$upscope $end
$scope module monitor_dv $end
$upscope $end
$scope module driver_cb $end
$var reg 1 + PSLVERR $end
$var reg 1 , PREADY $end
$var reg 32 - PRDATA $end
$var reg 1 . PENABLE $end
$var reg 32 / PWDATA $end
$var reg 1 0 PWRITE $end
$var reg 10 1 PADDR $end
$var reg 1 2 PSEL $end
$var reg 1 3 PRESETn $end
$upscope $end
$scope module monitor_cb $end
$var reg 1 4 PRESETn $end
$var reg 1 5 PSEL $end
$var reg 10 6 PADDR $end
$var reg 1 7 PWRITE $end
$var reg 32 8 PWDATA $end
$var reg 1 9 PENABLE $end
$var reg 1 : PSLVERR $end
$var reg 1 ; PREADY $end
$var reg 32 < PRDATA $end
$upscope $end
$scope module apb_asserts_dut $end
$scope module intf $end
$var reg 1 ! PCLK $end
$var reg 1 " PRESETn $end
$var reg 1 # PSEL $end
$var reg 10 $ PADDR $end
$var reg 1 % PWRITE $end
$var reg 32 & PWDATA $end
$var reg 1 ' PENABLE $end
$var reg 1 ( PSLVERR $end
$var reg 1 ) PREADY $end
$var reg 32 * PRDATA $end
$upscope $end
$upscope $end
$upscope $end
$scope task initialize_memories $end
$var reg 32 = seed [31:0] $end
$scope begin Block20_57 $end
$var reg 32 > i [31:0] $end
$upscope $end
$upscope $end
$upscope $end
$scope module dut $end
$var reg 2 ? apb_state $end
$scope module apb_slave $end
$var reg 1 ! PCLK $end
$var reg 1 " PRESETn $end
$var reg 1 # PSEL $end
$var reg 10 $ PADDR $end
$var reg 1 % PWRITE $end
$var reg 32 & PWDATA $end
$var reg 1 ' PENABLE $end
$var reg 1 ( PSLVERR $end
$var reg 1 ) PREADY $end
$var reg 32 * PRDATA $end
$scope module slave_mp $end
$var reg 1 ! PCLK $end
$var reg 1 " PRESETn $end
$var reg 1 # PSEL $end
$var reg 10 $ PADDR $end
$var reg 1 % PWRITE $end
$var reg 32 & PWDATA $end
$var reg 1 ' PENABLE $end
$var reg 1 ( PSLVERR $end
$var reg 1 ) PREADY $end
$var reg 32 * PRDATA $end
$upscope $end
$scope module monitor_mp $end
$var reg 1 ! PCLK $end
$var reg 1 " PRESETn $end
$var reg 1 # PSEL $end
$var reg 10 $ PADDR $end
$var reg 1 % PWRITE $end
$var reg 32 & PWDATA $end
$var reg 1 ' PENABLE $end
$var reg 1 ( PSLVERR $end
$var reg 1 ) PREADY $end
$var reg 32 * PRDATA $end
$upscope $end
$scope module driver_dv $end
$upscope $end
$scope module monitor_dv $end
$upscope $end
$scope module driver_cb $end
$var reg 1 + PSLVERR $end
$var reg 1 , PREADY $end
$var reg 32 - PRDATA $end
$var reg 1 . PENABLE $end
$var reg 32 / PWDATA $end
$var reg 1 0 PWRITE $end
$var reg 10 1 PADDR $end
$var reg 1 2 PSEL $end
$var reg 1 3 PRESETn $end
$upscope $end
$scope module monitor_cb $end
$var reg 1 4 PRESETn $end
$var reg 1 5 PSEL $end
$var reg 10 6 PADDR $end
$var reg 1 7 PWRITE $end
$var reg 32 8 PWDATA $end
$var reg 1 9 PENABLE $end
$var reg 1 : PSLVERR $end
$var reg 1 ; PREADY $end
$var reg 32 < PRDATA $end
$upscope $end
$scope module apb_asserts_dut $end
$scope module intf $end
$var reg 1 ! PCLK $end
$var reg 1 " PRESETn $end
$var reg 1 # PSEL $end
$var reg 10 $ PADDR $end
$var reg 1 % PWRITE $end
$var reg 32 & PWDATA $end
$var reg 1 ' PENABLE $end
$var reg 1 ( PSLVERR $end
$var reg 1 ) PREADY $end
$var reg 32 * PRDATA $end
$upscope $end
$upscope $end
$upscope $end
$scope module MEM $end
$var reg 1 @ clk $end
$var reg 1 A arstn $end
$var wire 1 B write_en $end
$var wire 10 C addr $end
$var wire 32 D dat_in $end
$var reg 32 E dat_out $end
$upscope $end
$upscope $end
$upscope $end
$enddefinitions $end

#0
$dumpvars
1!
1"
0#
b0 $
0%
b0 &
0'
x(
x)
b0 *
x+
x,
bx -
0.
b0 /
00
b0 1
02
13
x4
x5
bx 6
x7
bx 8
x9
x:
x;
bx <
b11101100001101000001110001111011 =
b10000000000 >
b0 ?
1@
1A
0B
b0 C
b0 D
b0 E
$end

#10000
0!
0@

#20000
1!
1#
b1010100100 $
1%
b11001010101011011111001010001110 &
b10000000100000011010001000000001 *
b0 -
b11001010101011011111001010001110 /
10
b1010100100 1
12
14
05
b0 6
07
b0 8
09
b0 <
1@
b1010100100 C
b11001010101011011111001010001110 D
b10000000100000011010001000000001 E

#30000
0!
0@

#40000
1!
1'
0(
0)
b1100000000101100010000111000000 *
b10000000100000011010001000000001 -
1.
15
b1010100100 6
17
b11001010101011011111001010001110 8
b10000000100000011010001000000001 <
b1 ?
1@
b1100000000101100010000111000000 E

#50000
0!
0@

#60000
1!
1)
0+
0,
b1100000000101100010000111000000 -
19
0:
0;
b1100000000101100010000111000000 <
b10 ?
1@
1B

#70000
0!
0@

#80000
1!
0#
b0 $
0%
b0 &
0'
0)
b0 *
1,
0.
b0 /
00
b0 1
02
1;
b1 ?
1@
0B
b0 C
b0 D
b0 E

#90000
0!
0@

#100000
1!
1#
b11000110 $
b10000000100000011010001000000001 *
0,
b0 -
b11000110 1
12
05
b0 6
07
b0 8
09
0;
b0 <
1@
b11000110 C
b10000000100000011010001000000001 E

#110000
0!
0@

#120000
1!
1'
b1000111011100011111100010001 *
b10000000100000011010001000000001 -
1.
15
b11000110 6
b10000000100000011010001000000001 <
1@
b1000111011100011111100010001 E

#130000
0!
0@

#140000
1!
1)
b1000111011100011111100010001 -
19
b1000111011100011111100010001 <
b10 ?
1@

#150000
0!
0@

#160000
1!
0#
b0 $
0'
0)
1,
0.
b0 1
02
1;
b1 ?
1@
b0 C

#170000
0!
0@

#180000
1!
1#
b1010010101 $
1%
b10100101110111011100000000011101 &
b10000000100000011010001000000001 *
0,
b10100101110111011100000000011101 /
10
b1010010101 1
12
05
b0 6
09
0;
1@
b1010010101 C
b10100101110111011100000000011101 D
b10000000100000011010001000000001 E

#190000
0!
0@

#200000
1!
1'
b1001001111001100111010110010011 *
b10000000100000011010001000000001 -
1.
15
b1010010101 6
17
b10100101110111011100000000011101 8
b10000000100000011010001000000001 <
1@
b1001001111001100111010110010011 E

#210000
0!
0@

#220000
1!
1)
b1001001111001100111010110010011 -
19
b1001001111001100111010110010011 <
b10 ?
1@
1B

#230000
0!
0@

#240000
1!
0#
b0 $
0%
b0 &
0'
0)
b0 *
1,
0.
b0 /
00
b0 1
02
1;
b1 ?
1@
0B
b0 C
b0 D
b0 E

#250000
0!
0@

#260000
1!
1#
b110101100 $
b10000000100000011010001000000001 *
0,
b0 -
b110101100 1
12
05
b0 6
07
b0 8
09
0;
b0 <
1@
b110101100 C
b10000000100000011010001000000001 E

#270000
0!
0@

#280000
1!
1'
b1111000100100101010110111110001 *
b10000000100000011010001000000001 -
1.
15
b110101100 6
b10000000100000011010001000000001 <
1@
b1111000100100101010110111110001 E

#290000
0!
0@

#300000
1!
1)
b1111000100100101010110111110001 -
19
b1111000100100101010110111110001 <
b10 ?
1@

#310000
0!
0@

#320000
1!
0#
b0 $
0'
0)
1,
0.
b0 1
02
1;
b1 ?
1@
b0 C

#330000
0!
0@

#340000
1!
1#
b1111011100 $
b10000000100000011010001000000001 *
0,
b1111011100 1
12
05
b0 6
09
0;
1@
b1111011100 C
b10000000100000011010001000000001 E

#350000
0!
0@

#360000
1!
1'
b11101011110100110001100011010111 *
b10000000100000011010001000000001 -
1.
15
b1111011100 6
b10000000100000011010001000000001 <
1@
b11101011110100110001100011010111 E

#370000
0!
0@

#380000
1!
1)
b11101011110100110001100011010111 -
19
b11101011110100110001100011010111 <
b10 ?
1@

#390000
0!
0@

#400000
1!
0#
b0 $
0'
0)
1,
0.
b0 1
02
1;
b1 ?
1@
b0 C

#410000
0!
0@

#420000
1!
1#
b1110000110 $
1%
b11101111110110111111000010111010 &
b10000000100000011010001000000001 *
0,
b11101111110110111111000010111010 /
10
b1110000110 1
12
05
b0 6
09
0;
1@
b1110000110 C
b11101111110110111111000010111010 D
b10000000100000011010001000000001 E

#430000
0!
0@

#440000
1!
1'
b10001010100000011100011000010101 *
b10000000100000011010001000000001 -
1.
15
b1110000110 6
17
b11101111110110111111000010111010 8
b10000000100000011010001000000001 <
1@
b10001010100000011100011000010101 E

#450000
0!
0@

#460000
1!
1)
b10001010100000011100011000010101 -
19
b10001010100000011100011000010101 <
b10 ?
1@
1B

#470000
0!
0@

#480000
1!
0#
b0 $
0%
b0 &
0'
0)
b0 *
1,
0.
b0 /
00
b0 1
02
1;
b1 ?
1@
0B
b0 C
b0 D
b0 E

#490000
0!
0@

#500000
1!
1#
b1100000 $
b10000000100000011010001000000001 *
0,
b0 -
b1100000 1
12
05
b0 6
07
b0 8
09
0;
b0 <
1@
b1100000 C
b10000000100000011010001000000001 E

#510000
0!
0@

#520000
1!
1'
b100001011000101101010101000010 *
b10000000100000011010001000000001 -
1.
15
b1100000 6
b10000000100000011010001000000001 <
1@
b100001011000101101010101000010 E

#530000
0!
0@

#540000
1!
1)
b100001011000101101010101000010 -
19
b100001011000101101010101000010 <
b10 ?
1@

#550000
0!
0@

#560000
1!
0#
b0 $
0'
0)
1,
0.
b0 1
02
1;
b1 ?
1@
b0 C

#570000
0!
0@

#580000
1!
1#
b11111011 $
b10000000100000011010001000000001 *
0,
b11111011 1
12
05
b0 6
09
0;
1@
b11111011 C
b10000000100000011010001000000001 E

#590000
0!
0@

#600000
1!
1'
b10110101110000100010000001101011 *
b10000000100000011010001000000001 -
1.
15
b11111011 6
b10000000100000011010001000000001 <
1@
b10110101110000100010000001101011 E

#610000
0!
0@

#620000
1!
1)
b10110101110000100010000001101011 -
19
b10110101110000100010000001101011 <
b10 ?
1@

#630000
0!
0@

#640000
1!
0#
b0 $
0'
0)
1,
0.
b0 1
02
1;
b1 ?
1@
b0 C

#650000
0!
0@

#660000
1!
1#
b1010101110 $
b10000000100000011010001000000001 *
0,
b1010101110 1
12
05
b0 6
09
0;
1@
b1010101110 C
b10000000100000011010001000000001 E

#670000
0!
0@

#680000
1!
1'
b10000110000111101010111000001100 *
b10000000100000011010001000000001 -
1.
15
b1010101110 6
b10000000100000011010001000000001 <
1@
b10000110000111101010111000001100 E

#690000
0!
0@

#700000
1!
1)
b10000110000111101010111000001100 -
19
b10000110000111101010111000001100 <
b10 ?
1@

#710000
0!
0@

#720000
1!
0#
b0 $
0'
0)
1,
0.
b0 1
02
1;
b1 ?
1@
b0 C

#730000
0!
0@

#740000
1!
1#
b1100001010 $
1%
b1011101000011001101100000100 &
b10000000100000011010001000000001 *
0,
b1011101000011001101100000100 /
10
b1100001010 1
12
05
b0 6
09
0;
1@
b1100001010 C
b1011101000011001101100000100 D
b10000000100000011010001000000001 E

#750000
0!
0@

#760000
1!
1'
b1001011111101101000111110010111 *
b10000000100000011010001000000001 -
1.
15
b1100001010 6
17
b1011101000011001101100000100 8
b10000000100000011010001000000001 <
1@
b1001011111101101000111110010111 E

#770000
0!
0@

#780000
1!
1)
b1001011111101101000111110010111 -
19
b1001011111101101000111110010111 <
b10 ?
1@
1B

#790000
0!
0@

#800000
1!
0#
b0 $
0%
b0 &
0'
0)
b0 *
1,
0.
b0 /
00
b0 1
02
1;
b1 ?
1@
0B
b0 C
b0 D
b0 E

#810000
0!
0@

#820000
1!
1#
b101000101 $
b10000000100000011010001000000001 *
0,
b0 -
b101000101 1
12
05
b0 6
07
b0 8
09
0;
b0 <
1@
b101000101 C
b10000000100000011010001000000001 E

#830000
0!
0@

#840000
1!
1'
b11111001100110010101100111110 *
b10000000100000011010001000000001 -
1.
15
b101000101 6
b10000000100000011010001000000001 <
1@
b11111001100110010101100111110 E

#850000
0!
0@

#860000
1!
1)
b11111001100110010101100111110 -
19
b11111001100110010101100111110 <
b10 ?
1@

#870000
0!
0@

#880000
1!
0#
b0 $
0'
0)
1,
0.
b0 1
02
1;
b1 ?
1@
b0 C

#890000
0!
0@

#900000
1!
1#
b1011010101 $
b10000000100000011010001000000001 *
0,
b1011010101 1
12
05
b0 6
09
0;
1@
b1011010101 C
b10000000100000011010001000000001 E

#910000
0!
0@

#920000
1!
1'
b11011011100001001010100010110111 *
b10000000100000011010001000000001 -
1.
15
b1011010101 6
b10000000100000011010001000000001 <
1@
b11011011100001001010100010110111 E

#930000
0!
0@

#940000
1!
1)
b11011011100001001010100010110111 -
19
b11011011100001001010100010110111 <
b10 ?
1@

#950000
0!
0@

#960000
1!
0#
b0 $
0'
0)
1,
0.
b0 1
02
1;
b1 ?
1@
b0 C

#970000
0!
0@

#980000
1!
1#
b1010110111 $
1%
b11011110010010001101110010101101 &
b10000000100000011010001000000001 *
0,
b11011110010010001101110010101101 /
10
b1010110111 1
12
05
b0 6
09
0;
1@
b1010110111 C
b11011110010010001101110010101101 D
b10000000100000011010001000000001 E

#990000
0!
0@

#1000000
1!
1'
b1111110010001010000100111111100 *
b10000000100000011010001000000001 -
1.
15
b1010110111 6
17
b11011110010010001101110010101101 8
b10000000100000011010001000000001 <
1@
b1111110010001010000100111111100 E

#1010000
0!
0@

#1020000
1!
1)
b1111110010001010000100111111100 -
19
b1111110010001010000100111111100 <
b10 ?
1@
1B

#1030000
0!
0@

#1040000
1!
0#
b0 $
0%
b0 &
0'
0)
b0 *
1,
0.
b0 /
00
b0 1
02
1;
b1 ?
1@
0B
b0 C
b0 D
b0 E

#1050000
0!
0@

#1060000
1!
1#
b110110100 $
b10000000100000011010001000000001 *
0,
b0 -
b110110100 1
12
05
b0 6
07
b0 8
09
0;
b0 <
1@
b110110100 C
b10000000100000011010001000000001 E

#1070000
0!
0@

#1080000
1!
1'
b100101000111100000111101001010 *
b10000000100000011010001000000001 -
1.
15
b110110100 6
b10000000100000011010001000000001 <
1@
b100101000111100000111101001010 E

#1090000
0!
0@

#1100000
1!
1)
b100101000111100000111101001010 -
19
b100101000111100000111101001010 <
b10 ?
1@

#1110000
0!
0@

#1120000
1!
0#
b0 $
0'
0)
1,
0.
b0 1
02
1;
b1 ?
1@
b0 C

#1130000
0!
0@

#1140000
1!
1#
b1001001110 $
1%
b10101101011110000101101101000011 &
b10000000100000011010001000000001 *
0,
b10101101011110000101101101000011 /
10
b1001001110 1
12
05
b0 6
09
0;
1@
b1001001110 C
b10101101011110000101101101000011 D
b10000000100000011010001000000001 E

#1150000
0!
0@

#1160000
1!
1'
b10000101010100101010000000001010 *
b10000000100000011010001000000001 -
1.
15
b1001001110 6
17
b10101101011110000101101101000011 8
b10000000100000011010001000000001 <
1@
b10000101010100101010000000001010 E

#1170000
0!
0@

#1180000
1!
1)
b10000101010100101010000000001010 -
19
b10000101010100101010000000001010 <
b10 ?
1@
1B

#1190000
0!
0@

#1200000
1!
0#
b0 $
0%
b0 &
0'
0)
b0 *
1,
0.
b0 /
00
b0 1
02
1;
b1 ?
1@
0B
b0 C
b0 D
b0 E

#1210000
0!
0@

#1220000
1!
1#
b110101010 $
1%
b11011010100010000101001101010100 &
b10000000100000011010001000000001 *
0,
b0 -
b11011010100010000101001101010100 /
10
b110101010 1
12
05
b0 6
07
b0 8
09
0;
b0 <
1@
b110101010 C
b11011010100010000101001101010100 D
b10000000100000011010001000000001 E

#1230000
0!
0@

#1240000
1!
1'
b11001010010101001010000010010100 *
b10000000100000011010001000000001 -
1.
15
b110101010 6
17
b11011010100010000101001101010100 8
b10000000100000011010001000000001 <
1@
b11001010010101001010000010010100 E

#1250000
0!
0@

#1260000
1!
1)
b11001010010101001010000010010100 -
19
b11001010010101001010000010010100 <
b10 ?
1@
1B

#1270000
0!
0@

#1280000
1!
0#
b0 $
0%
b0 &
0'
0)
b0 *
1,
0.
b0 /
00
b0 1
02
1;
b1 ?
1@
0B
b0 C
b0 D
b0 E

#1290000
0!
0@

#1300000
1!
1#
b1101010101 $
b10000000100000011010001000000001 *
0,
b0 -
b1101010101 1
12
05
b0 6
07
b0 8
09
0;
b0 <
1@
b1101010101 C
b10000000100000011010001000000001 E

#1310000
0!
0@

#1320000
1!
1'
b10011010100001000100111000110101 *
b10000000100000011010001000000001 -
1.
15
b1101010101 6
b10000000100000011010001000000001 <
1@
b10011010100001000100111000110101 E

#1330000
0!
0@

#1340000
1!
1)
b10011010100001000100111000110101 -
19
b10011010100001000100111000110101 <
b10 ?
1@

#1350000
0!
0@

#1360000
1!
0#
b0 $
0'
0)
1,
0.
b0 1
02
1;
b1 ?
1@
b0 C

#1370000
0!
0@

#1380000
1!
1#
b101110110 $
1%
b110110100000101100000001000100 &
b10000000100000011010001000000001 *
0,
b110110100000101100000001000100 /
10
b101110110 1
12
05
b0 6
09
0;
1@
b101110110 C
b110110100000101100000001000100 D
b10000000100000011010001000000001 E

#1390000
0!
0@

#1400000
1!
1'
b11011101110000111101111010111011 *
b10000000100000011010001000000001 -
1.
15
b101110110 6
17
b110110100000101100000001000100 8
b10000000100000011010001000000001 <
1@
b11011101110000111101111010111011 E

#1410000
0!
0@

#1420000
1!
1)
b11011101110000111101111010111011 -
19
b11011101110000111101111010111011 <
b10 ?
1@
1B

#1430000
0!
0@

#1440000
1!
0#
b0 $
0%
b0 &
0'
0)
b0 *
1,
0.
b0 /
00
b0 1
02
1;
b1 ?
1@
0B
b0 C
b0 D
b0 E

#1450000
0!
0@

#1460000
1!
1#
b1011110001 $
1%
b10111011011100101110101011110110 &
b10000000100000011010001000000001 *
0,
b0 -
b10111011011100101110101011110110 /
10
b1011110001 1
12
05
b0 6
07
b0 8
09
0;
b0 <
1@
b1011110001 C
b10111011011100101110101011110110 D
b10000000100000011010001000000001 E

#1470000
0!
0@

#1480000
1!
1'
b11010100011110111100000110 *
b10000000100000011010001000000001 -
1.
15
b1011110001 6
17
b10111011011100101110101011110110 8
b10000000100000011010001000000001 <
1@
b11010100011110111100000110 E

#1490000
0!
0@

#1500000
1!
1)
b11010100011110111100000110 -
19
b11010100011110111100000110 <
b10 ?
1@
1B

#1510000
0!
0@

#1520000
1!
0#
b0 $
0%
b0 &
0'
0)
b0 *
1,
0.
b0 /
00
b0 1
02
1;
b1 ?
1@
0B
b0 C
b0 D
b0 E

#1530000
0!
0@

#1540000
1!
1#
b1000101111 $
b10000000100000011010001000000001 *
0,
b0 -
b1000101111 1
12
05
b0 6
07
b0 8
09
0;
b0 <
1@
b1000101111 C
b10000000100000011010001000000001 E

#1550000
0!
0@

#1560000
1!
1'
b11111111100001110011111011111111 *
b10000000100000011010001000000001 -
1.
15
b1000101111 6
b10000000100000011010001000000001 <
1@
b11111111100001110011111011111111 E

#1570000
0!
0@

#1580000
1!
1)
b11111111100001110011111011111111 -
19
b11111111100001110011111011111111 <
b10 ?
1@

#1590000
0!
0@

#1600000
1!
0#
b0 $
0'
0)
1,
0.
b0 1
02
1;
b1 ?
1@
b0 C

#1610000
0!
0@

#1620000
1!
1#
b1101100110 $
1%
b11011111000101001110101011010000 &
b10000000100000011010001000000001 *
0,
b11011111000101001110101011010000 /
10
b1101100110 1
12
05
b0 6
09
0;
1@
b1101100110 C
b11011111000101001110101011010000 D
b10000000100000011010001000000001 E

#1630000
0!
0@

#1640000
1!
1'
b10001010011011111000111000010100 *
b10000000100000011010001000000001 -
1.
15
b1101100110 6
17
b11011111000101001110101011010000 8
b10000000100000011010001000000001 <
1@
b10001010011011111000111000010100 E

#1650000
0!
0@

#1660000
1!
1)
b10001010011011111000111000010100 -
19
b10001010011011111000111000010100 <
b10 ?
1@
1B

#1670000
0!
0@

#1680000
1!
0#
b0 $
0%
b0 &
0'
0)
b0 *
1,
0.
b0 /
00
b0 1
02
1;
b1 ?
1@
0B
b0 C
b0 D
b0 E

#1690000
0!
0@

#1700000
1!
1#
b1100101000 $
b10000000100000011010001000000001 *
0,
b0 -
b1100101000 1
12
05
b0 6
07
b0 8
09
0;
b0 <
1@
b1100101000 C
b10000000100000011010001000000001 E

#1710000
0!
0@

#1720000
1!
1'
b10001011101100110010011000010111 *
b10000000100000011010001000000001 -
1.
15
b1100101000 6
b10000000100000011010001000000001 <
1@
b10001011101100110010011000010111 E

#1730000
0!
0@

#1740000
1!
1)
b10001011101100110010011000010111 -
19
b10001011101100110010011000010111 <
b10 ?
1@

#1750000
0!
0@

#1760000
1!
0#
b0 $
0'
0)
1,
0.
b0 1
02
1;
b1 ?
1@
b0 C

#1770000
0!
0@

#1780000
1!
1#
b1001 $
1%
b11111111010100001001101011111011 &
b10000000100000011010001000000001 *
0,
b11111111010100001001101011111011 /
10
b1001 1
12
05
b0 6
09
0;
1@
b1001 C
b11111111010100001001101011111011 D
b10000000100000011010001000000001 E

#1790000
0!
0@

#1800000
1!
1'
b10111001001100001010010001110010 *
b10000000100000011010001000000001 -
1.
15
b1001 6
17
b11111111010100001001101011111011 8
b10000000100000011010001000000001 <
1@
b10111001001100001010010001110010 E

#1810000
0!
0@

#1820000
1!
1)
b10111001001100001010010001110010 -
19
b10111001001100001010010001110010 <
b10 ?
1@
1B

#1830000
0!
0@

#1840000
1!
0#
b0 $
0%
b0 &
0'
0)
b0 *
1,
0.
b0 /
00
b0 1
02
1;
b1 ?
1@
0B
b0 C
b0 D
b0 E

#1850000
0!
0@

#1860000
1!
1#
b1011111011 $
1%
b10100001111011110110110001100101 &
b10000000100000011010001000000001 *
0,
b0 -
b10100001111011110110110001100101 /
10
b1011111011 1
12
05
b0 6
07
b0 8
09
0;
b0 <
1@
b1011111011 C
b10100001111011110110110001100101 D
b10000000100000011010001000000001 E

#1870000
0!
0@

#1880000
1!
1'
b10001101110001100100111000011011 *
b10000000100000011010001000000001 -
1.
15
b1011111011 6
17
b10100001111011110110110001100101 8
b10000000100000011010001000000001 <
1@
b10001101110001100100111000011011 E

#1890000
0!
0@

#1900000
1!
1)
b10001101110001100100111000011011 -
19
b10001101110001100100111000011011 <
b10 ?
1@
1B

#1910000
0!
0@

#1920000
1!
0#
b0 $
0%
b0 &
0'
0)
b0 *
1,
0.
b0 /
00
b0 1
02
1;
b1 ?
1@
0B
b0 C
b0 D
b0 E

#1930000
0!
0@

#1940000
1!
1#
b10110100 $
b10000000100000011010001000000001 *
0,
b0 -
b10110100 1
12
05
b0 6
07
b0 8
09
0;
b0 <
1@
b10110100 C
b10000000100000011010001000000001 E

#1950000
0!
0@

#1960000
1!
1'
b1000010110110000010100010000 *
b10000000100000011010001000000001 -
1.
15
b10110100 6
b10000000100000011010001000000001 <
1@
b1000010110110000010100010000 E

#1970000
0!
0@

#1980000
1!
1)
b1000010110110000010100010000 -
19
b1000010110110000010100010000 <
b10 ?
1@

#1990000
0!
0@

#2000000
1!
0#
b0 $
0'
0)
1,
0.
b0 1
02
1;
b1 ?
1@
b0 C

#2010000
0!
0@

#2020000
1!
1#
b1100101001 $
b10000000100000011010001000000001 *
0,
b1100101001 1
12
05
b0 6
09
0;
1@
b1100101001 C
b10000000100000011010001000000001 E

#2030000
0!
0@

#2040000
1!
1'
b11011100000101101101100110111 *
b10000000100000011010001000000001 -
1.
15
b1100101001 6
b10000000100000011010001000000001 <
1@
b11011100000101101101100110111 E

#2050000
0!
0@

#2060000
1!
1)
b11011100000101101101100110111 -
19
b11011100000101101101100110111 <
b10 ?
1@

#2070000
0!
0@

#2080000
1!
0#
b0 $
0'
0)
1,
0.
b0 1
02
1;
b1 ?
1@
b0 C

#2090000
0!
0@

#2100000
1!
1#
b101001110 $
b10000000100000011010001000000001 *
0,
b101001110 1
12
05
b0 6
09
0;
1@
b101001110 C
b10000000100000011010001000000001 E

#2110000
0!
0@

#2120000
1!
1'
b10001010011010101011111000010100 *
b10000000100000011010001000000001 -
1.
15
b101001110 6
b10000000100000011010001000000001 <
1@
b10001010011010101011111000010100 E

#2130000
0!
0@

#2140000
1!
1)
b10001010011010101011111000010100 -
19
b10001010011010101011111000010100 <
b10 ?
1@

#2150000
0!
0@

#2160000
1!
0#
b0 $
0'
0)
1,
0.
b0 1
02
1;
b1 ?
1@
b0 C

#2170000
0!
0@

#2180000
1!
1#
b1010101001 $
b10000000100000011010001000000001 *
0,
b1010101001 1
12
05
b0 6
09
0;
1@
b1010101001 C
b10000000100000011010001000000001 E

#2190000
0!
0@

#2200000
1!
1'
b1010000101111011001101110100001 *
b10000000100000011010001000000001 -
1.
15
b1010101001 6
b10000000100000011010001000000001 <
1@
b1010000101111011001101110100001 E

#2210000
0!
0@

#2220000
1!
1)
b1010000101111011001101110100001 -
19
b1010000101111011001101110100001 <
b10 ?
1@

#2230000
0!
0@

#2240000
1!
0#
b0 $
0'
0)
1,
0.
b0 1
02
1;
b1 ?
1@
b0 C

#2250000
0!
0@

#2260000
1!
1#
b1010001011 $
1%
b10000010001110001101101010010001 &
b10000000100000011010001000000001 *
0,
b10000010001110001101101010010001 /
10
b1010001011 1
12
05
b0 6
09
0;
1@
b1010001011 C
b10000010001110001101101010010001 D
b10000000100000011010001000000001 E

#2270000
0!
0@

#2280000
1!
1'
b10001111100101110011001000011111 *
b10000000100000011010001000000001 -
1.
15
b1010001011 6
17
b10000010001110001101101010010001 8
b10000000100000011010001000000001 <
1@
b10001111100101110011001000011111 E

#2290000
0!
0@

#2300000
1!
1)
b10001111100101110011001000011111 -
19
b10001111100101110011001000011111 <
b10 ?
1@
1B

#2310000
0!
0@

#2320000
1!
0#
b0 $
0%
b0 &
0'
0)
b0 *
1,
0.
b0 /
00
b0 1
02
1;
b1 ?
1@
0B
b0 C
b0 D
b0 E

#2330000
0!
0@

#2340000
1!
1#
b110011011 $
b10000000100000011010001000000001 *
0,
b0 -
b110011011 1
12
05
b0 6
07
b0 8
09
0;
b0 <
1@
b110011011 C
b10000000100000011010001000000001 E

#2350000
0!
0@

#2360000
1!
1'
b10000100100000101110011000001001 *
b10000000100000011010001000000001 -
1.
15
b110011011 6
b10000000100000011010001000000001 <
1@
b10000100100000101110011000001001 E

#2370000
0!
0@

#2380000
1!
1)
b10000100100000101110011000001001 -
19
b10000100100000101110011000001001 <
b10 ?
1@

#2390000
0!
0@

#2400000
1!
0#
b0 $
0'
0)
1,
0.
b0 1
02
1;
b1 ?
1@
b0 C

#2410000
0!
0@

#2420000
1!
1#
b111000101 $
b10000000100000011010001000000001 *
0,
b111000101 1
12
05
b0 6
09
0;
1@
b111000101 C
b10000000100000011010001000000001 E

#2430000
0!
0@

