tb/oop/apb.vcd
$date
   Tue Dec 16 15:15:19 2025
$end

$version
  2025.1.1
  $dumpfile ("apb.vcd") 
$end

$timescale
  1ps
$end

$scope module top $end
$var reg 1 ! clk $end
$var reg 1 " resetn $end
$scope module top_intf $end
$var reg 1 ! PCLK $end
$var reg 1 " PRESETn $end
$var reg 1 # PSEL $end
$var reg 1 $ PENABLE $end
$var reg 10 % PADDR $end
$var reg 1 & PWRITE $end
$var reg 32 ' PWDATA $end
$var reg 4 ( PSTRB $end
$var reg 1 ) PREADY $end
$var reg 32 * PRDATA $end
$var reg 1 + PSLVERR $end
$scope module slv_mp $end
$var reg 1 ! PCLK $end
$var reg 1 " PRESETn $end
$var reg 1 # PSEL $end
$var reg 10 % PADDR $end
$var reg 1 & PWRITE $end
$var reg 32 ' PWDATA $end
$var reg 4 ( PSTRB $end
$var reg 1 $ PENABLE $end
$var reg 1 ) PREADY $end
$var reg 32 * PRDATA $end
$var reg 1 + PSLVERR $end
$upscope $end
$scope module mst_mp $end
$var reg 1 # PSEL $end
$var reg 10 % PADDR $end
$var reg 1 & PWRITE $end
$var reg 32 ' PWDATA $end
$var reg 4 ( PSTRB $end
$var reg 1 $ PENABLE $end
$var reg 1 ! PCLK $end
$var reg 1 " PRESETn $end
$var reg 1 ) PREADY $end
$var reg 32 * PRDATA $end
$var reg 1 + PSLVERR $end
$upscope $end
$scope module driver_dv $end
$upscope $end
$scope module monitor_dv $end
$upscope $end
$scope module sva_mp $end
$var reg 1 ! PCLK $end
$var reg 1 " PRESETn $end
$var reg 1 # PSEL $end
$var reg 10 % PADDR $end
$var reg 1 & PWRITE $end
$var reg 32 ' PWDATA $end
$var reg 4 ( PSTRB $end
$var reg 1 $ PENABLE $end
$var reg 1 ) PREADY $end
$var reg 32 * PRDATA $end
$var reg 1 + PSLVERR $end
$upscope $end
$scope module driver_cb $end
$var reg 1 , PREADY $end
$var reg 32 - PRDATA $end
$var reg 1 . PSLVERR $end
$var reg 1 / PENABLE $end
$var reg 4 0 PSTRB $end
$var reg 32 1 PWDATA $end
$var reg 1 2 PWRITE $end
$var reg 10 3 PADDR $end
$var reg 1 4 PSEL $end
$var reg 1 5 PRESETn $end
$upscope $end
$scope module monitor_cb $end
$var reg 1 6 PRESETn $end
$var reg 1 7 PSEL $end
$var reg 10 8 PADDR $end
$var reg 1 9 PWRITE $end
$var reg 32 : PWDATA $end
$var reg 4 ; PSTRB $end
$var reg 1 < PENABLE $end
$var reg 1 = PREADY $end
$var reg 32 > PRDATA $end
$var reg 1 ? PSLVERR $end
$upscope $end
$upscope $end
$scope module t1 $end
$scope module test_intf $end
$var reg 1 ! PCLK $end
$var reg 1 " PRESETn $end
$var reg 1 # PSEL $end
$var reg 1 $ PENABLE $end
$var reg 10 % PADDR $end
$var reg 1 & PWRITE $end
$var reg 32 ' PWDATA $end
$var reg 4 ( PSTRB $end
$var reg 1 ) PREADY $end
$var reg 32 * PRDATA $end
$var reg 1 + PSLVERR $end
$scope module slv_mp $end
$var reg 1 ! PCLK $end
$var reg 1 " PRESETn $end
$var reg 1 # PSEL $end
$var reg 10 % PADDR $end
$var reg 1 & PWRITE $end
$var reg 32 ' PWDATA $end
$var reg 4 ( PSTRB $end
$var reg 1 $ PENABLE $end
$var reg 1 ) PREADY $end
$var reg 32 * PRDATA $end
$var reg 1 + PSLVERR $end
$upscope $end
$scope module mst_mp $end
$var reg 1 # PSEL $end
$var reg 10 % PADDR $end
$var reg 1 & PWRITE $end
$var reg 32 ' PWDATA $end
$var reg 4 ( PSTRB $end
$var reg 1 $ PENABLE $end
$var reg 1 ! PCLK $end
$var reg 1 " PRESETn $end
$var reg 1 ) PREADY $end
$var reg 32 * PRDATA $end
$var reg 1 + PSLVERR $end
$upscope $end
$scope module driver_dv $end
$upscope $end
$scope module monitor_dv $end
$upscope $end
$scope module sva_mp $end
$var reg 1 ! PCLK $end
$var reg 1 " PRESETn $end
$var reg 1 # PSEL $end
$var reg 10 % PADDR $end
$var reg 1 & PWRITE $end
$var reg 32 ' PWDATA $end
$var reg 4 ( PSTRB $end
$var reg 1 $ PENABLE $end
$var reg 1 ) PREADY $end
$var reg 32 * PRDATA $end
$var reg 1 + PSLVERR $end
$upscope $end
$scope module driver_cb $end
$var reg 1 , PREADY $end
$var reg 32 - PRDATA $end
$var reg 1 . PSLVERR $end
$var reg 1 / PENABLE $end
$var reg 4 0 PSTRB $end
$var reg 32 1 PWDATA $end
$var reg 1 2 PWRITE $end
$var reg 10 3 PADDR $end
$var reg 1 4 PSEL $end
$var reg 1 5 PRESETn $end
$upscope $end
$scope module monitor_cb $end
$var reg 1 6 PRESETn $end
$var reg 1 7 PSEL $end
$var reg 10 8 PADDR $end
$var reg 1 9 PWRITE $end
$var reg 32 : PWDATA $end
$var reg 4 ; PSTRB $end
$var reg 1 < PENABLE $end
$var reg 1 = PREADY $end
$var reg 32 > PRDATA $end
$var reg 1 ? PSLVERR $end
$upscope $end
$upscope $end
$scope task initialize_memories $end
$scope begin Block43_50 $end
$var reg 32 @ i [31:0] $end
$upscope $end
$upscope $end
$upscope $end
$scope module dut $end
$var reg 2 A present_state $end
$var reg 2 B next_state $end
$var reg 2 C read_cnt [1:0] $end
$var reg 2 D write_cnt [1:0] $end
$scope module apb_slave $end
$var reg 1 ! PCLK $end
$var reg 1 " PRESETn $end
$var reg 1 # PSEL $end
$var reg 10 % PADDR $end
$var reg 1 & PWRITE $end
$var reg 32 ' PWDATA $end
$var reg 4 ( PSTRB $end
$var reg 1 $ PENABLE $end
$var reg 1 ) PREADY $end
$var reg 32 * PRDATA $end
$var reg 1 + PSLVERR $end
$upscope $end
$scope begin Block152_56 $end
$var reg 32 E i [31:0] $end
$upscope $end
$scope module apb_asserts_dut $end
$scope module assert_intf $end
$var reg 1 ! PCLK $end
$var reg 1 " PRESETn $end
$var reg 1 # PSEL $end
$var reg 10 % PADDR $end
$var reg 1 & PWRITE $end
$var reg 32 ' PWDATA $end
$var reg 4 ( PSTRB $end
$var reg 1 $ PENABLE $end
$var reg 1 ) PREADY $end
$var reg 32 * PRDATA $end
$var reg 1 + PSLVERR $end
$upscope $end
$upscope $end
$upscope $end
$upscope $end
$enddefinitions $end

#0
$dumpvars
1!
1"
1#
0$
b1111111011 %
0&
b0 '
b0 (
0)
b0 *
0+
x,
bx -
x.
0/
b0 0
b0 1
02
b1111111011 3
14
15
06
x7
bx 8
x9
bx :
bx ;
x<
x=
bx >
x?
b10000000000 @
b0 A
b1 B
b1 C
b11 D
b0 E
$end

#5000
0!

#10000
1!
1$
0,
b0 -
0.
1/
16
17
b1111111011 8
09
b0 :
b0 ;
0<
0=
b0 >
0?
b1 A
b10 B

#15000
0!

#20000
1!
1<
b10 A

#25000
0!

#30000
1!
1)
b1010010100100100110010110100101 *
b0 B
b0 C

#35000
0!

#40000
1!
0$
b1110 %
1&
b10101010100111101110100101111100 '
b1000 (
0)
b0 *
1,
b1010010100100100110010110100101 -
0/
b1000 0
b10101010100111101110100101111100 1
12
b1110 3
1=
b1010010100100100110010110100101 >
b0 A
b1 B

#45000
0!

#50000
1!
1$
0,
b0 -
1/
b1110 8
19
b10101010100111101110100101111100 :
b1000 ;
0<
0=
b0 >
b1 A
b10 B
b1 C

#55000
0!

#60000
1!
1)
1+
1<
b10 A
b0 B

#65000
0!

#70000
1!
0$
b1111110001 %
b10001100011110000000000100100101 '
b100 (
0)
0+
1,
1.
0/
b100 0
b10001100011110000000000100100101 1
b1111110001 3
1=
1?
b0 A
b1 B
b10 D

#75000
0!

#80000
1!
1$
0,
0.
1/
b1111110001 8
b10001100011110000000000100100101 :
b100 ;
0<
0=
0?
b1 A
b10 B
b11 D

#85000
0!

#90000
1!
1<
b10 A

#95000
0!

#100000
1!
b10 D

#105000
0!

#110000
1!
b1 D

#115000
0!

#120000
1!
1)
b0 B
b0 D

#125000
0!

#130000
1!
0$
b1010 %
0&
b0 '
b0 (
0)
1,
0/
b0 0
b0 1
02
b1010 3
1=
b0 A
b1 B
b100 E

#135000
0!

#140000
1!
1$
0,
1/
b1010 8
09
b0 :
b0 ;
0<
0=
b1 A
b10 B
b11 D

#145000
0!

#150000
1!
1<
b10 A

#155000
0!

#160000
1!
1)
b1101000001111111111010111010000 *
b0 B
b0 C

#165000
0!

#170000
1!
0$
b1111 %
1&
b10100111110001010010111010110101 '
b1 (
0)
b0 *
1,
b1101000001111111111010111010000 -
0/
b1 0
b10100111110001010010111010110101 1
12
b1111 3
1=
b1101000001111111111010111010000 >
b0 A
b1 B

#175000
0!

#180000
1!
1$
0,
b0 -
1/
b1111 8
19
b10100111110001010010111010110101 :
b1 ;
0<
0=
b0 >
b1 A
b10 B
b1 C

#185000
0!

#190000
1!
1)
1+
1<
b10 A
b0 B

#195000
0!

#200000
1!
0#
0$
b0 %
0&
b0 '
b0 (
0)
0+
1,
1.
0/
b0 0
b0 1
02
b0 3
04
1=
1?
b0 A
b10 D

#205000
0!

#210000
1!
1#
b1111111010 %
1&
b10101110101100010111011100100011 '
b1000 (
0,
0.
b1000 0
b10101110101100010111011100100011 1
12
b1111111010 3
14
07
b0 8
09
b0 :
b0 ;
0<
0=
0?
b1 B
b11 D

#215000
0!

#220000
1!
1$
1/
17
b1111111010 8
19
b10101110101100010111011100100011 :
b1000 ;
b1 A
b10 B

#225000
0!

#230000
1!
1<
b10 A

#235000
0!

#240000
1!
b10 D

#245000
0!

#250000
1!
b1 D

#255000
0!

#260000
1!
1)
b0 B
b0 D

#265000
0!

#270000
1!
0$
b100 %
b10111101010010000000111111000111 '
b1011 (
0)
1,
0/
b1011 0
b10111101010010000000111111000111 1
b100 3
1=
b0 A
b1 B
b100 E

#275000
0!

#280000
1!
1$
0,
1/
b100 8
b10111101010010000000111111000111 :
b1011 ;
0<
0=
b1 A
b10 B
b11 D

#285000
0!

#290000
1!
1)
1+
1<
b10 A
b0 B

#295000
0!

#300000
1!
0$
b1111110100 %
b110110011100110100111010001110 '
0)
0+
1,
1.
0/
b110110011100110100111010001110 1
b1111110100 3
1=
1?
b0 A
b1 B
b10 D

#305000
0!

#310000
1!
1$
0,
0.
1/
b1111110100 8
b110110011100110100111010001110 :
0<
0=
0?
b1 A
b10 B
b11 D

#315000
0!

#320000
1!
1<
b10 A

#325000
0!

#330000
1!
b10 D

#335000
0!

#340000
1!
b1 D

#345000
0!

#350000
1!
1)
b0 B
b0 D

#355000
0!

#360000
1!
0#
0$
b0 %
0&
b0 '
b0 (
0)
1,
0/
b0 0
b0 1
02
b0 3
04
1=
b0 A
b100 E

#365000
0!

#370000
1!
0,
07
b0 8
09
b0 :
b0 ;
0<
0=
b11 D

#375000
0!

#380000
1!

#385000
0!

#390000
1!
1#
b1111110010 %
1&
b11100100001110010110101101101100 '
b1010 (
b1010 0
b11100100001110010110101101101100 1
12
b1111110010 3
14
b1 B

#395000
0!

#400000
1!
1$
1/
17
b1111110010 8
19
b11100100001110010110101101101100 :
b1010 ;
b1 A
b10 B

#405000
0!

#410000
1!
1<
b10 A

#415000
0!

#420000
1!
b10 D

#425000
0!

#430000
1!
b1 D

#435000
0!

#440000
1!
1)
b0 B
b0 D

#445000
0!

#450000
1!
0$
b1111110000 %
0&
b0 '
b0 (
0)
1,
0/
b0 0
b0 1
02
b1111110000 3
1=
b0 A
b1 B
b100 E

#455000
0!

#460000
1!
1$
0,
1/
b1111110000 8
09
b0 :
b0 ;
0<
0=
b1 A
b10 B
b11 D

#465000
0!

#470000
1!
1<
b10 A

#475000
0!

#480000
1!
1)
b1110001100000110101100011100 *
b0 B
b0 C

#485000
0!

#490000
1!
0$
b1111111010 %
0)
b0 *
1,
b1110001100000110101100011100 -
0/
b1111111010 3
1=
b1110001100000110101100011100 >
b0 A
b1 B

#495000
0!

#500000
1!
1$
0,
b0 -
1/
b1111111010 8
0<
0=
b0 >
b1 A
b10 B
b1 C

#505000
0!

#510000
1!
1<
b10 A

#515000
0!

#520000
1!
1)
b10101110010101010110010001011100 *
b0 B
b0 C

#525000
0!

#530000
1!
0$
b1111110100 %
1&
b11000101011100110110011000110100 '
b101 (
0)
b0 *
1,
b10101110010101010110010001011100 -
0/
b101 0
b11000101011100110110011000110100 1
12
b1111110100 3
1=
b10101110010101010110010001011100 >
b0 A
b1 B

#535000
0!

#540000
1!
1$
0,
b0 -
1/
b1111110100 8
19
b11000101011100110110011000110100 :
b101 ;
0<
0=
b0 >
b1 A
b10 B
b1 C

#545000
0!

#550000
1!
1<
b10 A

#555000
0!

#560000
1!
b10 D

#565000
0!

#570000
1!
b1 D

#575000
0!

#580000
1!
1)
b0 B
b0 D

#585000
0!

#590000
1!
0$
b1000 %
b10110000010101111011100101100 '
b1110 (
0)
1,
0/
b1110 0
b10110000010101111011100101100 1
b1000 3
1=
b0 A
b1 B
b100 E

#595000
0!

#600000
1!
1$
0,
1/
b1000 8
b10110000010101111011100101100 :
b1110 ;
0<
0=
b1 A
b10 B
b11 D

#605000
0!

#610000
1!
1)
1+
1<
b10 A
b0 B

#615000
0!

#620000
1!
0$
b111 %
b10111100000011101110110000010 '
b1001 (
0)
0+
1,
1.
0/
b1001 0
b10111100000011101110110000010 1
b111 3
1=
1?
b0 A
b1 B
b10 D

#625000
0!

#630000
1!
1$
0,
0.
1/
b111 8
b10111100000011101110110000010 :
b1001 ;
0<
0=
0?
b1 A
b10 B
b11 D

#635000
0!

#640000
1!
1)
1+
1<
b10 A
b0 B

#645000
0!

#650000
1!
0$
b11 %
0&
b0 '
b0 (
0)
0+
1,
1.
0/
b0 0
b0 1
02
b11 3
1=
1?
b0 A
b1 B
b10 D

#655000
0!

#660000
1!
1$
0,
0.
1/
b11 8
09
b0 :
b0 ;
0<
0=
0?
b1 A
b10 B
b11 D

#665000
0!

#670000
1!
1<
b10 A

#675000
0!

#680000
1!
1)
b10001010101000010110010000010101 *
b0 B
b0 C

#685000
0!

#690000
1!
0$
b0 %
0)
b0 *
1,
b10001010101000010110010000010101 -
0/
b0 3
1=
b10001010101000010110010000010101 >
b0 A
b1 B

#695000
0!

#700000
1!
1$
0,
b0 -
1/
b0 8
0<
0=
b0 >
b1 A
b10 B
b1 C

#705000
0!

#710000
1!
1<
b10 A

#715000
0!

#720000
1!
1)
b10000000100000011010001000000001 *
b0 B
b0 C

#725000
0!

#730000
1!
0$
b1001 %
0)
b0 *
1,
b10000000100000011010001000000001 -
0/
b1001 3
1=
b10000000100000011010001000000001 >
b0 A
b1 B

#735000
0!

#740000
1!
1$
0,
b0 -
1/
b1001 8
0<
0=
b0 >
b1 A
b10 B
b1 C

#745000
0!

#750000
1!
1<
b10 A

#755000
0!

#760000
1!
1)
b10111001001100001010010001110010 *
b0 B
b0 C

#765000
0!

#770000
1!
0$
b1111111100 %
0)
b0 *
1,
b10111001001100001010010001110010 -
0/
b1111111100 3
1=
b10111001001100001010010001110010 >
b0 A
b1 B

#775000
0!

#780000
1!
1$
0,
b0 -
1/
b1111111100 8
0<
0=
b0 >
b1 A
b10 B
b1 C

#785000
0!

#790000
1!
1<
b10 A

#795000
0!

#800000
1!
1)
b11110001100000101010111011100011 *
b0 B
b0 C

#805000
0!

#810000
1!
0$
b1111110000 %
0)
b0 *
1,
b11110001100000101010111011100011 -
0/
b1111110000 3
1=
b11110001100000101010111011100011 >
b0 A
b1 B

#815000
0!

#820000
1!
1$
0,
b0 -
1/
b1111110000 8
0<
0=
b0 >
b1 A
b10 B
b1 C

#825000
0!

#830000
1!
1<
b10 A

#835000
0!

#840000
1!
1)
b1110001100000110101100011100 *
b0 B
b0 C

#845000
0!

#850000
1!
0$
b1111111011 %
0)
b0 *
1,
b1110001100000110101100011100 -
0/
b1111111011 3
1=
b1110001100000110101100011100 >
b0 A
b1 B

#855000
0!

#860000
1!
1$
0,
b0 -
1/
b1111111011 8
0<
0=
b0 >
b1 A
b10 B
b1 C

#865000
0!

#870000
1!
1<
b10 A

#875000
0!

#880000
1!
1)
b1010010100100100110010110100101 *
b0 B
b0 C

#885000
0!

#890000
1!
0$
b1111111001 %
1&
b10101110011110110110110000100001 '
b10 (
0)
b0 *
1,
b1010010100100100110010110100101 -
0/
b10 0
b10101110011110110110110000100001 1
12
b1111111001 3
1=
b1010010100100100110010110100101 >
b0 A
b1 B

#895000
0!

#900000
1!
1$
0,
b0 -
1/
b1111111001 8
19
b10101110011110110110110000100001 :
b10 ;
0<
0=
b0 >
b1 A
b10 B
b1 C

#905000
0!

#910000
1!
1<
b10 A

#915000
0!

#920000
1!
b10 D

#925000
0!

#930000
1!
b1 D

#935000
0!

#940000
1!
1)
b0 B
b0 D

#945000
0!

#950000
1!
0$
b1010 %
b11110010000011101110100010000110 '
b1001 (
0)
1,
0/
b1001 0
b11110010000011101110100010000110 1
b1010 3
1=
b0 A
b1 B
b100 E

#955000
0!

#960000
1!
1$
0,
1/
b1010 8
b11110010000011101110100010000110 :
b1001 ;
0<
0=
b1 A
b10 B
b11 D

#965000
0!

#970000
1!
1)
1+
1<
b10 A
b0 B

#975000
0!

#980000
1!
0#
0$
b0 %
0&
b0 '
b0 (
0)
0+
1,
1.
0/
b0 0
b0 1
02
b0 3
04
1=
1?
b0 A
b10 D

#985000
0!

#990000
1!
1#
b1 %
1&
b11011000000101111000010011100010 '
b1011 (
0,
0.
b1011 0
b11011000000101111000010011100010 1
12
b1 3
14
07
b0 8
09
b0 :
b0 ;
0<
0=
0?
b1 B
b11 D

#995000
0!

#1000000
1!
1$
1/
17
b1 8
19
b11011000000101111000010011100010 :
b1011 ;
b1 A
b10 B

#1005000
0!

#1010000
1!
1)
1+
1<
b10 A
b0 B

#1015000
0!

#1020000
1!
0$
b1111111101 %
0&
b0 '
b0 (
0)
0+
1,
1.
0/
b0 0
b0 1
02
b1111111101 3
1=
1?
b0 A
b1 B
b10 D

#1025000
0!

#1030000
1!
1$
0,
0.
1/
b1111111101 8
09
b0 :
b0 ;
0<
0=
0?
b1 A
b10 B
b11 D

#1035000
0!

#1040000
1!
1<
b10 A

#1045000
0!

#1050000
1!
1)
b10110100110110011111111001101001 *
b0 B
b0 C

#1055000
0!

#1060000
1!
0#
0$
b0 %
0)
b0 *
1,
b10110100110110011111111001101001 -
0/
b0 3
04
1=
b10110100110110011111111001101001 >
b0 A

#1065000
0!

#1070000
1!
0,
b0 -
07
b0 8
0<
0=
b0 >
b1 C

#1075000
0!

#1080000
1!
1#
b100 %
b100 3
14
b1 B

#1085000
0!

#1090000
1!
1$
1/
17
b100 8
b1 A
b10 B

#1095000
0!

#1100000
1!
1<
b10 A

#1105000
0!

#1110000
1!
1)
b10011000110000001011001000110001 *
b0 B
b0 C

#1115000
0!

#1120000
1!
0$
b1001 %
1&
b11000110110101111100101000101000 '
b1011 (
0)
b0 *
1,
b10011000110000001011001000110001 -
0/
b1011 0
b11000110110101111100101000101000 1
12
b1001 3
1=
b10011000110000001011001000110001 >
b0 A
b1 B

#1125000
0!

#1130000
1!
1$
0,
b0 -
1/
b1001 8
19
b11000110110101111100101000101000 :
b1011 ;
0<
0=
b0 >
b1 A
b10 B
b1 C

#1135000
0!

#1140000
1!
1)
1+
1<
b10 A
b0 B

#1145000
0!

#1150000
1!
0#
0$
b0 %
0&
b0 '
b0 (
0)
0+
1,
1.
0/
b0 0
b0 1
02
b0 3
04
1=
1?
b0 A
b10 D

#1155000
0!

#1160000
1!
0,
0.
07
b0 8
09
b0 :
b0 ;
0<
0=
0?
b11 D

#1165000
0!

#1170000
1!

#1175000
0!

#1180000
1!
1#
b1111110101 %
1&
b11011111000110001000110111100101 '
b110 (
b110 0
b11011111000110001000110111100101 1
12
b1111110101 3
14
b1 B

#1185000
0!

#1190000
1!
1$
1/
17
b1111110101 8
19
b11011111000110001000110111100101 :
b110 ;
b1 A
b10 B

#1195000
0!

#1200000
1!
1<
b10 A

#1205000
0!

#1210000
1!
b10 D

#1215000
0!

#1220000
1!
b1 D

#1225000
0!

#1230000
1!
1)
b0 B
b0 D

#1235000
0!

#1240000
1!
0$
b101 %
b101010001001000101000111010101 '
b1111 (
0)
1,
0/
b1111 0
b101010001001000101000111010101 1
b101 3
1=
b0 A
b1 B
b100 E

#1245000
0!

#1250000
1!
1$
0,
1/
b101 8
b101010001001000101000111010101 :
b1111 ;
0<
0=
b1 A
b10 B
b11 D

#1255000
0!

#1260000
1!
1)
1+
1<
b10 A
b0 B

#1265000
0!

#1270000
1!
0$
b1111110001 %
0&
b0 '
b0 (
0)
0+
1,
1.
0/
b0 0
b0 1
02
b1111110001 3
1=
1?
b0 A
b1 B
b10 D

#1275000
0!

#1280000
1!
1$
0,
0.
1/
b1111110001 8
09
b0 :
b0 ;
0<
0=
0?
b1 A
b10 B
b11 D

#1285000
0!

#1290000
1!
1<
b10 A

#1295000
0!

#1300000
1!
1)
b111011011110000100110101110111 *
b0 B
b0 C

#1305000
0!

#1310000
1!
0$
b1111110101 %
1&
b11010101011011011101100110001011 '
b11 (
0)
b0 *
1,
b111011011110000100110101110111 -
0/
b11 0
b11010101011011011101100110001011 1
12
b1111110101 3
1=
b111011011110000100110101110111 >
b0 A
b1 B

#1315000
0!

#1320000
1!
1$
0,
b0 -
1/
b1111110101 8
19
b11010101011011011101100110001011 :
b11 ;
0<
0=
b0 >
b1 A
b10 B
b1 C

#1325000
0!

#1330000
1!
1<
b10 A

#1335000
0!

#1340000
1!
b10 D

#1345000
0!

#1350000
1!
b1 D

#1355000
0!

#1360000
1!
1)
b0 B
b0 D

#1365000
0!

#1370000
1!
0$
b111 %
0&
b0 '
b0 (
0)
1,
0/
b0 0
b0 1
02
b111 3
1=
b0 A
b1 B
b100 E

#1375000
0!

#1380000
1!
1$
0,
1/
b111 8
09
b0 :
b0 ;
0<
0=
b1 A
b10 B
b11 D

#1385000
0!

#1390000
1!
1<
b10 A

#1395000
0!

#1400000
1!
1)
b11010011010110010010111010100110 *
b0 B
b0 C

#1405000
0!

#1410000
1!
0$
b1111110011 %
0)
b0 *
1,
b11010011010110010010111010100110 -
0/
b1111110011 3
1=
b11010011010110010010111010100110 >
b0 A
b1 B

#1415000
0!

#1420000
1!
1$
0,
b0 -
1/
b1111110011 8
0<
0=
b0 >
b1 A
b10 B
b1 C

#1425000
0!

#1430000
1!
1<
b10 A

#1435000
0!

#1440000
1!
1)
b1010110011100000000100010101 *
b0 B
b0 C

#1445000
0!

#1450000
1!
0#
0$
b0 %
0)
b0 *
1,
b1010110011100000000100010101 -
0/
b0 3
04
1=
b1010110011100000000100010101 >
b0 A

#1455000
0!

#1460000
1!
1#
b1111110101 %
1&
b11100000001101011101011110111110 '
b101 (
0,
b0 -
b101 0
b11100000001101011101011110111110 1
12
b1111110101 3
14
07
b0 8
0<
0=
b0 >
b1 B
b1 C

#1465000
0!

#1470000
1!
1$
1/
17
b1111110101 8
19
b11100000001101011101011110111110 :
b101 ;
b1 A
b10 B

#1475000
0!

#1480000
1!
1<
b10 A

#1485000
0!

#1490000
1!
b10 D

#1495000
0!

#1500000
1!
b1 D

#1505000
0!

#1510000
1!
1)
b0 B
b0 D

#1515000
0!

#1520000
1!
0$
b1100 %
b11011010110011011110101001111111 '
b1111 (
0)
1,
0/
b1111 0
b11011010110011011110101001111111 1
b1100 3
1=
b0 A
b1 B
b100 E

#1525000
0!

#1530000
1!
1$
0,
1/
b1100 8
b11011010110011011110101001111111 :
b1111 ;
0<
0=
b1 A
b10 B
b11 D

#1535000
0!

#1540000
1!
1)
1+
1<
b10 A
b0 B

#1545000
0!

#1550000
1!
0$
b1111110001 %
0&
b0 '
b0 (
0)
0+
1,
1.
0/
b0 0
b0 1
02
b1111110001 3
1=
1?
b0 A
b1 B
b10 D

#1555000
0!

#1560000
1!
1$
0,
0.
1/
b1111110001 8
09
b0 :
b0 ;
0<
0=
0?
b1 A
b10 B
b11 D

#1565000
0!

#1570000
1!
1<
b10 A

#1575000
0!

#1580000
1!
1)
b111011011110000100110101110111 *
b0 B
b0 C

#1585000
0!

#1590000
1!
0$
b1100 %
0)
b0 *
1,
b111011011110000100110101110111 -
0/
b1100 3
1=
b111011011110000100110101110111 >
b0 A
b1 B

#1595000
0!

#1600000
1!
1$
0,
b0 -
1/
b1100 8
0<
0=
b0 >
b1 A
b10 B
b1 C

#1605000
0!

#1610000
1!
1<
b10 A

#1615000
0!

#1620000
1!
1)
b11111111100000000000111011111111 *
b0 B
b0 C

#1625000
0!

#1630000
1!
0$
b1111111011 %
1&
b11000000101101100010001100001101 '
b1010 (
0)
b0 *
1,
b11111111100000000000111011111111 -
0/
b1010 0
b11000000101101100010001100001101 1
12
b1111111011 3
1=
b11111111100000000000111011111111 >
b0 A
b1 B

#1635000
0!

#1640000
1!
1$
0,
b0 -
1/
b1111111011 8
19
b11000000101101100010001100001101 :
b1010 ;
0<
0=
b0 >
b1 A
b10 B
b1 C

#1645000
0!

#1650000
1!
1<
b10 A

#1655000
0!

#1660000
1!
b10 D

#1665000
0!

#1670000
1!
b1 D

#1675000
0!

#1680000
1!
1)
b0 B
b0 D

#1685000
0!

#1690000
1!
0$
b1111110111 %
0&
b0 '
b0 (
0)
1,
0/
b0 0
b0 1
02
b1111110111 3
1=
b0 A
b1 B
b100 E

#1695000
0!

#1700000
1!
1$
0,
1/
b1111110111 8
09
b0 :
b0 ;
0<
0=
b1 A
b10 B
b11 D

#1705000
0!

#1710000
1!
1<
b10 A

#1715000
0!

#1720000
1!
1)
b1010101011101101101100110101010 *
b0 B
b0 C

#1725000
0!

#1730000
1!
0$
b1111111000 %
0)
b0 *
1,
b1010101011101101101100110101010 -
0/
b1111111000 3
1=
b1010101011101101101100110101010 >
b0 A
b1 B

#1735000
0!

#1740000
1!
1$
0,
b0 -
1/
b1111111000 8
0<
0=
b0 >
b1 A
b10 B
b1 C

#1745000
0!

#1750000
1!
1<
b10 A

#1755000
0!

#1760000
1!
1)
b1010000111000101011000110100001 *
b0 B
b0 C

#1765000
0!

#1770000
1!
0$
b1110 %
0)
b0 *
1,
b1010000111000101011000110100001 -
0/
b1110 3
1=
b1010000111000101011000110100001 >
b0 A
b1 B

#1775000
0!

#1780000
1!
1$
0,
b0 -
1/
b1110 8
0<
0=
b0 >
b1 A
b10 B
b1 C

#1785000
0!

#1790000
1!
1<
b10 A

#1795000
0!

#1800000
1!
1)
b1100101111100011100001111001011 *
b0 B
b0 C

#1805000
0!

#1810000
1!
0$
b1111110000 %
1&
b11001000110101000101101111011011 '
b1010 (
0)
b0 *
1,
b1100101111100011100001111001011 -
0/
b1010 0
b11001000110101000101101111011011 1
12
b1111110000 3
1=
b1100101111100011100001111001011 >
b0 A
b1 B

#1815000
0!

#1820000
1!
1$
0,
b0 -
1/
b1111110000 8
19
b11001000110101000101101111011011 :
b1010 ;
0<
0=
b0 >
b1 A
b10 B
b1 C

#1825000
0!

#1830000
1!
1<
b10 A

#1835000
0!

#1840000
1!
b10 D

#1845000
0!

#1850000
1!
b1 D

#1855000
0!

#1860000
1!
1)
b0 B
b0 D

#1865000
0!

#1870000
1!
0$
b1111111111 %
b11101111100101010100111101000101 '
b1011 (
0)
1,
0/
b1011 0
b11101111100101010100111101000101 1
b1111111111 3
1=
b0 A
b1 B
b100 E

#1875000
0!

#1880000
1!
1$
0,
1/
b1111111111 8
b11101111100101010100111101000101 :
b1011 ;
0<
0=
b1 A
b10 B
b11 D

#1885000
0!

#1890000
1!
1<
b10 A

#1895000
0!

#1900000
1!
b10 D

#1905000
0!

#1910000
1!
b1 D

#1915000
0!

#1920000
1!
1)
b0 B
b0 D

#1925000
0!

#1930000
1!
0$
b1 %
0&
b0 '
b0 (
0)
1,
0/
b0 0
b0 1
02
b1 3
1=
b0 A
b1 B
b100 E

#1935000
0!

#1940000
1!
1$
0,
1/
b1 8
09
b0 :
b0 ;
0<
0=
b1 A
b10 B
b11 D

#1945000
0!

#1950000
1!
1<
b10 A

#1955000
0!

#1960000
1!
1)
b11110100000011101010100111101 *
b0 B
b0 C

#1965000
0!

#1970000
1!
0$
b1111111111 %
1&
b11000101010010011010011001000101 '
b101 (
0)
b0 *
1,
b11110100000011101010100111101 -
0/
b101 0
b11000101010010011010011001000101 1
12
b1111111111 3
1=
b11110100000011101010100111101 >
b0 A
b1 B

#1975000
0!

#1980000
1!
1$
0,
b0 -
1/
b1111111111 8
19
b11000101010010011010011001000101 :
b101 ;
0<
0=
b0 >
b1 A
b10 B
b1 C

#1985000
0!

#1990000
1!
1<
b10 A

#1995000
0!

#2000000
1!
b10 D

#2005000
0!

#2010000
1!
b1 D

#2015000
0!

#2020000
1!
1)
b0 B
b0 D

#2025000
0!

#2030000
1!
0$
b1111111011 %
0&
b0 '
b0 (
0)
1,
0/
b0 0
b0 1
02
b1111111011 3
1=
b0 A
b1 B
b100 E

#2035000
0!

#2040000
1!
1$
0,
1/
b1111111011 8
09
b0 :
b0 ;
0<
0=
b1 A
b10 B
b11 D

#2045000
0!

#2050000
1!
1<
b10 A

#2055000
0!

#2060000
1!
1)
b11000000100100100010001110100101 *
b0 B
b0 C

#2065000
0!

#2070000
1!
0"
0#
0$
b0 %
0)
b0 *
1,
b11000000100100100010001110100101 -
0/
b0 3
04
05
1=
b11000000100100100010001110100101 >
b0 A
b1 C

#2075000
0!

#2080000
1!
1"
1#
b1100 %
0,
b0 -
b1100 3
14
15
06
07
b0 8
0<
0=
b0 >
b1 B

#2085000
0!

#2090000
1!
1$
1/
16
17
b1100 8
b1 A
b10 B

#2095000
0!

#2100000
1!
1<
b10 A

#2105000
0!

#2110000
1!
1)
b11111111100000000000111011111111 *
b0 B
b0 C

#2115000
0!

#2120000
1!
0#
0$
b0 %
0)
b0 *
1,
b11111111100000000000111011111111 -
0/
b0 3
04
1=
b11111111100000000000111011111111 >
b0 A

#2125000
0!

