tb/oop/apb.vcd
$date
   Fri Nov  7 22:51:13 2025
$end

$version
  2025.1.1
  $dumpfile ("apb.vcd") 
$end

$timescale
  1ps
$end

$scope module top $end
$var reg 1 ! clk $end
$scope module top_intf $end
$var reg 1 ! PCLK $end
$var reg 1 " PRESETn $end
$var reg 1 # PSEL $end
$var reg 10 $ PADDR $end
$var reg 1 % PWRITE $end
$var reg 32 & PWDATA $end
$var reg 1 ' PENABLE $end
$var reg 1 ( PSLVERR $end
$var reg 1 ) PREADY $end
$var reg 32 * PRDATA $end
$scope module slave $end
$var reg 1 ! PCLK $end
$var reg 1 " PRESETn $end
$var reg 1 # PSEL $end
$var reg 10 $ PADDR $end
$var reg 1 % PWRITE $end
$var reg 32 & PWDATA $end
$var reg 1 ' PENABLE $end
$var reg 1 ( PSLVERR $end
$var reg 1 ) PREADY $end
$var reg 32 * PRDATA $end
$upscope $end
$scope module monitor_mp $end
$var reg 1 ! PCLK $end
$var reg 1 " PRESETn $end
$var reg 1 # PSEL $end
$var reg 10 $ PADDR $end
$var reg 1 % PWRITE $end
$var reg 32 & PWDATA $end
$var reg 1 ' PENABLE $end
$var reg 1 ( PSLVERR $end
$var reg 1 ) PREADY $end
$var reg 32 * PRDATA $end
$upscope $end
$scope module driver_dv $end
$upscope $end
$scope module monitor_dv $end
$upscope $end
$scope module driver_cb $end
$var reg 1 + PSLVERR $end
$var reg 1 , PREADY $end
$var reg 32 - PRDATA $end
$var reg 1 . PENABLE $end
$var reg 32 / PWDATA $end
$var reg 1 0 PWRITE $end
$var reg 10 1 PADDR $end
$var reg 1 2 PSEL $end
$var reg 1 3 PRESETn $end
$upscope $end
$scope module monitor_cb $end
$var reg 1 4 PRESETn $end
$var reg 1 5 PSEL $end
$var reg 10 6 PADDR $end
$var reg 1 7 PWRITE $end
$var reg 32 8 PWDATA $end
$var reg 1 9 PENABLE $end
$var reg 1 : PSLVERR $end
$var reg 1 ; PREADY $end
$var reg 32 < PRDATA $end
$upscope $end
$scope module apb_asserts_dut $end
$scope module intf $end
$var reg 1 ! PCLK $end
$var reg 1 " PRESETn $end
$var reg 1 # PSEL $end
$var reg 10 $ PADDR $end
$var reg 1 % PWRITE $end
$var reg 32 & PWDATA $end
$var reg 1 ' PENABLE $end
$var reg 1 ( PSLVERR $end
$var reg 1 ) PREADY $end
$var reg 32 * PRDATA $end
$upscope $end
$upscope $end
$upscope $end
$scope module t1 $end
$scope module intf $end
$var reg 1 ! PCLK $end
$var reg 1 " PRESETn $end
$var reg 1 # PSEL $end
$var reg 10 $ PADDR $end
$var reg 1 % PWRITE $end
$var reg 32 & PWDATA $end
$var reg 1 ' PENABLE $end
$var reg 1 ( PSLVERR $end
$var reg 1 ) PREADY $end
$var reg 32 * PRDATA $end
$scope module slave $end
$var reg 1 ! PCLK $end
$var reg 1 " PRESETn $end
$var reg 1 # PSEL $end
$var reg 10 $ PADDR $end
$var reg 1 % PWRITE $end
$var reg 32 & PWDATA $end
$var reg 1 ' PENABLE $end
$var reg 1 ( PSLVERR $end
$var reg 1 ) PREADY $end
$var reg 32 * PRDATA $end
$upscope $end
$scope module monitor_mp $end
$var reg 1 ! PCLK $end
$var reg 1 " PRESETn $end
$var reg 1 # PSEL $end
$var reg 10 $ PADDR $end
$var reg 1 % PWRITE $end
$var reg 32 & PWDATA $end
$var reg 1 ' PENABLE $end
$var reg 1 ( PSLVERR $end
$var reg 1 ) PREADY $end
$var reg 32 * PRDATA $end
$upscope $end
$scope module driver_dv $end
$upscope $end
$scope module monitor_dv $end
$upscope $end
$scope module driver_cb $end
$var reg 1 + PSLVERR $end
$var reg 1 , PREADY $end
$var reg 32 - PRDATA $end
$var reg 1 . PENABLE $end
$var reg 32 / PWDATA $end
$var reg 1 0 PWRITE $end
$var reg 10 1 PADDR $end
$var reg 1 2 PSEL $end
$var reg 1 3 PRESETn $end
$upscope $end
$scope module monitor_cb $end
$var reg 1 4 PRESETn $end
$var reg 1 5 PSEL $end
$var reg 10 6 PADDR $end
$var reg 1 7 PWRITE $end
$var reg 32 8 PWDATA $end
$var reg 1 9 PENABLE $end
$var reg 1 : PSLVERR $end
$var reg 1 ; PREADY $end
$var reg 32 < PRDATA $end
$upscope $end
$scope module apb_asserts_dut $end
$scope module intf $end
$var reg 1 ! PCLK $end
$var reg 1 " PRESETn $end
$var reg 1 # PSEL $end
$var reg 10 $ PADDR $end
$var reg 1 % PWRITE $end
$var reg 32 & PWDATA $end
$var reg 1 ' PENABLE $end
$var reg 1 ( PSLVERR $end
$var reg 1 ) PREADY $end
$var reg 32 * PRDATA $end
$upscope $end
$upscope $end
$upscope $end
$upscope $end
$scope module dut $end
$var reg 2 = apb_state $end
$scope module apb_slave $end
$var reg 1 ! PCLK $end
$var reg 1 " PRESETn $end
$var reg 1 # PSEL $end
$var reg 10 $ PADDR $end
$var reg 1 % PWRITE $end
$var reg 32 & PWDATA $end
$var reg 1 ' PENABLE $end
$var reg 1 ( PSLVERR $end
$var reg 1 ) PREADY $end
$var reg 32 * PRDATA $end
$scope module slave $end
$var reg 1 ! PCLK $end
$var reg 1 " PRESETn $end
$var reg 1 # PSEL $end
$var reg 10 $ PADDR $end
$var reg 1 % PWRITE $end
$var reg 32 & PWDATA $end
$var reg 1 ' PENABLE $end
$var reg 1 ( PSLVERR $end
$var reg 1 ) PREADY $end
$var reg 32 * PRDATA $end
$upscope $end
$scope module monitor_mp $end
$var reg 1 ! PCLK $end
$var reg 1 " PRESETn $end
$var reg 1 # PSEL $end
$var reg 10 $ PADDR $end
$var reg 1 % PWRITE $end
$var reg 32 & PWDATA $end
$var reg 1 ' PENABLE $end
$var reg 1 ( PSLVERR $end
$var reg 1 ) PREADY $end
$var reg 32 * PRDATA $end
$upscope $end
$scope module driver_dv $end
$upscope $end
$scope module monitor_dv $end
$upscope $end
$scope module driver_cb $end
$var reg 1 + PSLVERR $end
$var reg 1 , PREADY $end
$var reg 32 - PRDATA $end
$var reg 1 . PENABLE $end
$var reg 32 / PWDATA $end
$var reg 1 0 PWRITE $end
$var reg 10 1 PADDR $end
$var reg 1 2 PSEL $end
$var reg 1 3 PRESETn $end
$upscope $end
$scope module monitor_cb $end
$var reg 1 4 PRESETn $end
$var reg 1 5 PSEL $end
$var reg 10 6 PADDR $end
$var reg 1 7 PWRITE $end
$var reg 32 8 PWDATA $end
$var reg 1 9 PENABLE $end
$var reg 1 : PSLVERR $end
$var reg 1 ; PREADY $end
$var reg 32 < PRDATA $end
$upscope $end
$scope module apb_asserts_dut $end
$scope module intf $end
$var reg 1 ! PCLK $end
$var reg 1 " PRESETn $end
$var reg 1 # PSEL $end
$var reg 10 $ PADDR $end
$var reg 1 % PWRITE $end
$var reg 32 & PWDATA $end
$var reg 1 ' PENABLE $end
$var reg 1 ( PSLVERR $end
$var reg 1 ) PREADY $end
$var reg 32 * PRDATA $end
$upscope $end
$upscope $end
$upscope $end
$scope begin Block14_57 $end
$var reg 32 > i [31:0] $end
$upscope $end
$upscope $end
$upscope $end
$enddefinitions $end

#0
$dumpvars
1!
1"
0#
b0 $
0%
b0 &
0'
x(
x)
bx *
x+
x,
bx -
0.
b0 /
00
b0 1
02
13
x4
x5
bx 6
x7
bx 8
x9
x:
x;
bx <
b0 =
b10000000000 >
$end

#10000
0!

#20000
1!
1#
b1001101 $
1%
b11001111100101000010010000111000 &
b11001111100101000010010000111000 /
10
b1001101 1
12
14
05
b0 6
07
b0 8
09

#30000
0!

#40000
1!
1'
0(
0)
b0 *
1.
15
b1001101 6
17
b11001111100101000010010000111000 8
b1 =

#50000
0!

#60000
1!
1)
0+
0,
b0 -
19
0:
0;
b0 <
b10 =

#70000
0!

#80000
1!
0#
b0 $
0%
b0 &
0'
0)
1,
0.
b0 /
00
b0 1
02
1;
b1 =

#90000
0!

#100000
1!
1#
b1010100 $
0,
b1010100 1
12
05
b0 6
07
b0 8
09
0;

#110000
0!

#120000
1!
1'
1.
15
b1010100 6

#130000
0!

#140000
1!
1)
b1010100 *
19
b10 =

#150000
0!

#160000
1!
0#
b0 $
0'
0)
1,
b1010100 -
0.
b0 1
02
1;
b1010100 <
b1 =

#170000
0!

#180000
1!
1#
b10000101 $
0,
b10000101 1
12
05
b0 6
09
0;

#190000
0!

#200000
1!
1'
1.
15
b10000101 6

#210000
0!

#220000
1!
1)
b10000101 *
19
b10 =

#230000
0!

#240000
1!
0#
b0 $
0'
0)
1,
b10000101 -
0.
b0 1
02
1;
b10000101 <
b1 =

#250000
0!

#260000
1!
1#
b11011100 $
0,
b11011100 1
12
05
b0 6
09
0;

#270000
0!

#280000
1!
1'
1.
15
b11011100 6

#290000
0!

#300000
1!
1)
b11011100 *
19
b10 =

#310000
0!

#320000
1!
0#
b0 $
0'
0)
1,
b11011100 -
0.
b0 1
02
1;
b11011100 <
b1 =

#330000
0!

#340000
1!
1#
b11111001 $
1%
b10101001101110101101100101010 &
0,
b10101001101110101101100101010 /
10
b11111001 1
12
05
b0 6
09
0;

#350000
0!

#360000
1!
1'
1.
15
b11111001 6
17
b10101001101110101101100101010 8

#370000
0!

#380000
1!
1)
19
b10 =

#390000
0!

#400000
1!
0#
b0 $
0%
b0 &
0'
0)
1,
0.
b0 /
00
b0 1
02
1;
b1 =

#410000
0!

#420000
1!
1#
b1000000100 $
1%
b10101011111001111111110110000000 &
0,
b10101011111001111111110110000000 /
10
b1000000100 1
12
05
b0 6
07
b0 8
09
0;

#430000
0!

#440000
1!
1'
1.
15
b1000000100 6
17
b10101011111001111111110110000000 8

#450000
0!

#460000
1!
1)
19
b10 =

#470000
0!

#480000
1!
0#
b0 $
0%
b0 &
0'
0)
1,
0.
b0 /
00
b0 1
02
1;
b1 =

#490000
0!

#500000
1!
1#
b10011010 $
1%
b11011110101010110011110100101101 &
0,
b11011110101010110011110100101101 /
10
b10011010 1
12
05
b0 6
07
b0 8
09
0;

#510000
0!

#520000
1!
1'
1.
15
b10011010 6
17
b11011110101010110011110100101101 8

#530000
0!

#540000
1!
1)
19
b10 =

#550000
0!

#560000
1!
0#
b0 $
0%
b0 &
0'
0)
1,
0.
b0 /
00
b0 1
02
1;
b1 =

#570000
0!

#580000
1!
1#
b101111010 $
0,
b101111010 1
12
05
b0 6
07
b0 8
09
0;

#590000
0!

#600000
1!
1'
1.
15
b101111010 6

#610000
0!

#620000
1!
1)
b101111010 *
19
b10 =

#630000
0!

#640000
1!
0#
b0 $
0'
0)
1,
b101111010 -
0.
b0 1
02
1;
b101111010 <
b1 =

#650000
0!

#660000
1!
1#
b1001110 $
1%
b110001100111110011011100111011 &
0,
b110001100111110011011100111011 /
10
b1001110 1
12
05
b0 6
09
0;

#670000
0!

#680000
1!
1'
1.
15
b1001110 6
17
b110001100111110011011100111011 8

#690000
0!

#700000
1!
1)
19
b10 =

#710000
0!

#720000
1!
0#
b0 $
0%
b0 &
0'
0)
1,
0.
b0 /
00
b0 1
02
1;
b1 =

#730000
0!

#740000
1!
1#
b1110100011 $
0,
b1110100011 1
12
05
b0 6
07
b0 8
09
0;

#750000
0!

#760000
1!
1'
1.
15
b1110100011 6

#770000
0!

#780000
1!
1)
b1110100011 *
19
b10 =

#790000
0!

#800000
1!
0#
b0 $
0'
0)
1,
b1110100011 -
0.
b0 1
02
1;
b1110100011 <
b1 =

#810000
0!

#820000
1!
1#
b100100 $
1%
b11110111010011010001001101001 &
0,
b11110111010011010001001101001 /
10
b100100 1
12
05
b0 6
09
0;

#830000
0!

#840000
1!
1'
1.
15
b100100 6
17
b11110111010011010001001101001 8

#850000
0!

#860000
1!
1)
19
b10 =

#870000
0!

#880000
1!
0#
b0 $
0%
b0 &
0'
0)
1,
0.
b0 /
00
b0 1
02
1;
b1 =

#890000
0!

#900000
1!
1#
b1111100110 $
1%
b10000110010001110111010101101000 &
0,
b10000110010001110111010101101000 /
10
b1111100110 1
12
05
b0 6
07
b0 8
09
0;

#910000
0!

#920000
1!
1'
1.
15
b1111100110 6
17
b10000110010001110111010101101000 8

#930000
0!

#940000
1!
1)
19
b10 =

#950000
0!

#960000
1!
0#
b0 $
0%
b0 &
0'
0)
1,
0.
b0 /
00
b0 1
02
1;
b1 =

#970000
0!

#980000
1!
1#
b111110 $
1%
b10010011001011000100010101100010 &
0,
b10010011001011000100010101100010 /
10
b111110 1
12
05
b0 6
07
b0 8
09
0;

#990000
0!

#1000000
1!
1'
1.
15
b111110 6
17
b10010011001011000100010101100010 8

#1010000
0!

#1020000
1!
1)
19
b10 =

#1030000
0!

#1040000
1!
0#
b0 $
0%
b0 &
0'
0)
1,
0.
b0 /
00
b0 1
02
1;
b1 =

#1050000
0!

#1060000
1!
1#
b1101000101 $
1%
b110000110010010000110011001111 &
0,
b110000110010010000110011001111 /
10
b1101000101 1
12
05
b0 6
07
b0 8
09
0;

#1070000
0!

#1080000
1!
1'
1.
15
b1101000101 6
17
b110000110010010000110011001111 8

#1090000
0!

#1100000
1!
1)
19
b10 =

#1110000
0!

#1120000
1!
0#
b0 $
0%
b0 &
0'
0)
1,
0.
b0 /
00
b0 1
02
1;
b1 =

#1130000
0!

#1140000
1!
1#
b1111000011 $
1%
b100011111000110010111101000110 &
0,
b100011111000110010111101000110 /
10
b1111000011 1
12
05
b0 6
07
b0 8
09
0;

#1150000
0!

#1160000
1!
1'
1.
15
b1111000011 6
17
b100011111000110010111101000110 8

#1170000
0!

#1180000
1!
1)
19
b10 =

#1190000
0!

#1200000
1!
0#
b0 $
0%
b0 &
0'
0)
1,
0.
b0 /
00
b0 1
02
1;
b1 =

#1210000
0!

#1220000
1!
1#
b1100101111 $
1%
b11001100101011011000001001001000 &
0,
b11001100101011011000001001001000 /
10
b1100101111 1
12
05
b0 6
07
b0 8
09
0;

#1230000
0!

#1240000
1!
1'
1.
15
b1100101111 6
17
b11001100101011011000001001001000 8

#1250000
0!

#1260000
1!
1)
19
b10 =

#1270000
0!

#1280000
1!
0#
b0 $
0%
b0 &
0'
0)
1,
0.
b0 /
00
b0 1
02
1;
b1 =

#1290000
0!

#1300000
1!
1#
b101111101 $
1%
b11111110010000101010110 &
0,
b11111110010000101010110 /
10
b101111101 1
12
05
b0 6
07
b0 8
09
0;

#1310000
0!

#1320000
1!
1'
1.
15
b101111101 6
17
b11111110010000101010110 8

#1330000
0!

#1340000
1!
1)
19
b10 =

#1350000
0!

#1360000
1!
0#
b0 $
0%
b0 &
0'
0)
1,
0.
b0 /
00
b0 1
02
1;
b1 =

#1370000
0!

#1380000
1!
1#
b1010001100 $
0,
b1010001100 1
12
05
b0 6
07
b0 8
09
0;

#1390000
0!

#1400000
1!
1'
1.
15
b1010001100 6

#1410000
0!

#1420000
1!
1)
b1010001100 *
19
b10 =

#1430000
0!

#1440000
1!
0#
b0 $
0'
0)
1,
b1010001100 -
0.
b0 1
02
1;
b1010001100 <
b1 =

#1450000
0!

#1460000
1!
1#
b1101001011 $
0,
b1101001011 1
12
05
b0 6
09
0;

#1470000
0!

#1480000
1!
1'
1.
15
b1101001011 6

#1490000
0!

#1500000
1!
1)
b1101001011 *
19
b10 =

#1510000
0!

#1520000
1!
0#
b0 $
0'
0)
1,
b1101001011 -
0.
b0 1
02
1;
b1101001011 <
b1 =

#1530000
0!

#1540000
1!
1#
b111100111 $
1%
b11001000010111010111110011101011 &
0,
b11001000010111010111110011101011 /
10
b111100111 1
12
05
b0 6
09
0;

#1550000
0!

#1560000
1!
1'
1.
15
b111100111 6
17
b11001000010111010111110011101011 8

#1570000
0!

#1580000
1!
1)
19
b10 =

#1590000
0!

#1600000
1!
0#
b0 $
0%
b0 &
0'
0)
1,
0.
b0 /
00
b0 1
02
1;
b1 =

#1610000
0!

#1620000
1!
1#
b111111 $
0,
b111111 1
12
05
b0 6
07
b0 8
09
0;

#1630000
0!

#1640000
1!
1'
1.
15
b111111 6

#1650000
0!

#1660000
1!
1)
b111111 *
19
b10 =

#1670000
0!

#1680000
1!
0#
b0 $
0'
0)
1,
b111111 -
0.
b0 1
02
1;
b111111 <
b1 =

#1690000
0!

#1700000
1!
1#
b1101101000 $
0,
b1101101000 1
12
05
b0 6
09
0;

#1710000
0!

#1720000
1!
1'
1.
15
b1101101000 6

#1730000
0!

#1740000
1!
1)
b1101101000 *
19
b10 =

#1750000
0!

#1760000
1!
0#
b0 $
0'
0)
1,
b1101101000 -
0.
b0 1
02
1;
b1101101000 <
b1 =

#1770000
0!

#1780000
1!
1#
b1011110100 $
1%
b11000001110110110001000011000101 &
0,
b11000001110110110001000011000101 /
10
b1011110100 1
12
05
b0 6
09
0;

#1790000
0!

#1800000
1!
1'
1.
15
b1011110100 6
17
b11000001110110110001000011000101 8

#1810000
0!

#1820000
1!
1)
19
b10 =

#1830000
0!

#1840000
1!
0"
0)
b0 *
1,
03
1;
b0 =

#1850000
0!

#1860000
1!
1"
0#
b0 $
0%
b0 &
0'
0,
b0 -
0.
b0 /
00
b0 1
02
13
04
0;
b0 <

#1870000
0!

#1880000
1!
1#
b111110100 $
1%
b11100100101000110000110010010011 &
b11100100101000110000110010010011 /
10
b111110100 1
12
14
05
b0 6
07
b0 8
09

#1890000
0!

#1900000
1!
1'
1.
15
b111110100 6
17
b11100100101000110000110010010011 8
b1 =

#1910000
0!

#1920000
1!
1)
19
b10 =

#1930000
0!

#1940000
1!
0#
b0 $
0%
b0 &
0'
0)
1,
0.
b0 /
00
b0 1
02
1;
b1 =

#1950000
0!

#1960000
1!
1#
b11001110 $
1%
b10100100101011111010010010110010 &
0,
b10100100101011111010010010110010 /
10
b11001110 1
12
05
b0 6
07
b0 8
09
0;

#1970000
0!

#1980000
1!
1'
1.
15
b11001110 6
17
b10100100101011111010010010110010 8

#1990000
0!

#2000000
1!
1)
19
b10 =

#2010000
0!

#2020000
1!
0#
b0 $
0%
b0 &
0'
0)
1,
0.
b0 /
00
b0 1
02
1;
b1 =

#2030000
0!

#2040000
1!
1#
b100010 $
1%
b11100110001010100111111110111 &
0,
b11100110001010100111111110111 /
10
b100010 1
12
05
b0 6
07
b0 8
09
0;

#2050000
0!

#2060000
1!
1'
1.
15
b100010 6
17
b11100110001010100111111110111 8

#2070000
0!

#2080000
1!
1)
19
b10 =

#2090000
0!

#2100000
1!
0#
b0 $
0%
b0 &
0'
0)
1,
0.
b0 /
00
b0 1
02
1;
b1 =

#2110000
0!

#2120000
1!
1#
b1001111111 $
0,
b1001111111 1
12
05
b0 6
07
b0 8
09
0;

#2130000
0!

#2140000
1!
1'
1.
15
b1001111111 6

#2150000
0!

#2160000
1!
1)
b1001111111 *
19
b10 =

#2170000
0!

#2180000
1!
0#
b0 $
0'
0)
1,
b1001111111 -
0.
b0 1
02
1;
b1001111111 <
b1 =

#2190000
0!

#2200000
1!
1#
b111101 $
1%
b11011000001101110111100101010001 &
0,
b11011000001101110111100101010001 /
10
b111101 1
12
05
b0 6
09
0;

#2210000
0!

#2220000
1!
1'
1.
15
b111101 6
17
b11011000001101110111100101010001 8

#2230000
0!

#2240000
1!
1)
19
b10 =

#2250000
0!

#2260000
1!
0#
b0 $
0%
b0 &
0'
0)
1,
0.
b0 /
00
b0 1
02
1;
b1 =

#2270000
0!

#2280000
1!
1#
b1100111110 $
0,
b1100111110 1
12
05
b0 6
07
b0 8
09
0;

#2290000
0!

#2300000
1!
1'
1.
15
b1100111110 6

#2310000
0!

#2320000
1!
1)
b1100111110 *
19
b10 =

#2330000
0!

#2340000
1!
0#
b0 $
0'
0)
1,
b1100111110 -
0.
b0 1
02
1;
b1100111110 <
b1 =

#2350000
0!

#2360000
1!
1#
b10001111 $
0,
b10001111 1
12
05
b0 6
09
0;

#2370000
0!

#2380000
1!
1'
1.
15
b10001111 6

#2390000
0!

#2400000
1!
1)
b10001111 *
19
b10 =

#2410000
0!

#2420000
1!
0#
b0 $
0'
0)
1,
b10001111 -
0.
b0 1
02
1;
b10001111 <
b1 =

#2430000
0!

#2440000
1!
1#
b1001100000 $
1%
b11011100110110111001101100110000 &
0,
b11011100110110111001101100110000 /
10
b1001100000 1
12
05
b0 6
09
0;

#2450000
0!

#2460000
1!
1'
1.
15
b1001100000 6
17
b11011100110110111001101100110000 8

#2470000
0!

#2480000
1!
1)
19
b10 =

#2490000
0!

#2500000
1!
0#
b0 $
0%
b0 &
0'
0)
1,
0.
b0 /
00
b0 1
02
1;
b1 =

#2510000
0!

#2520000
1!
1#
b101101 $
1%
b11011111100101111110110010101100 &
0,
b11011111100101111110110010101100 /
10
b101101 1
12
05
b0 6
07
b0 8
09
0;

#2530000
0!

#2540000
1!
1'
1.
15
b101101 6
17
b11011111100101111110110010101100 8

#2550000
0!

#2560000
1!
1)
19
b10 =

#2570000
0!

#2580000
1!
0#
b0 $
0%
b0 &
0'
0)
1,
0.
b0 /
00
b0 1
02
1;
b1 =

#2590000
0!

#2600000
1!
1#
b11011001 $
1%
b10010010100110000010001101101 &
0,
b10010010100110000010001101101 /
10
b11011001 1
12
05
b0 6
07
b0 8
09
0;

#2610000
0!

#2620000
1!
1'
1.
15
b11011001 6
17
b10010010100110000010001101101 8

#2630000
0!

#2640000
1!
1)
19
b10 =

#2650000
0!

#2660000
1!
0#
b0 $
0%
b0 &
0'
0)
1,
0.
b0 /
00
b0 1
02
1;
b1 =

#2670000
0!

#2680000
1!
1#
b100001111 $
0,
b100001111 1
12
05
b0 6
07
b0 8
09
0;

#2690000
0!

#2700000
1!
1'
1.
15
b100001111 6

#2710000
0!

#2720000
1!
1)
b100001111 *
19
b10 =

#2730000
0!

#2740000
1!
0#
b0 $
0'
0)
1,
b100001111 -
0.
b0 1
02
1;
b100001111 <
b1 =

#2750000
0!

#2760000
1!
1#
b10001110 $
1%
b10110111110011110110011001101010 &
0,
b10110111110011110110011001101010 /
10
b10001110 1
12
05
b0 6
09
0;

#2770000
0!

#2780000
1!
1'
1.
15
b10001110 6
17
b10110111110011110110011001101010 8

#2790000
0!

#2800000
1!
1)
19
b10 =

#2810000
0!

#2820000
1!
0#
b0 $
0%
b0 &
0'
0)
1,
0.
b0 /
00
b0 1
02
1;
b1 =

#2830000
0!

#2840000
1!
1#
b1010011101 $
0,
b1010011101 1
12
05
b0 6
07
b0 8
09
0;

#2850000
0!

#2860000
1!
1'
1.
15
b1010011101 6

#2870000
0!

#2880000
1!
1)
b1010011101 *
19
b10 =

#2890000
0!

#2900000
1!
0#
b0 $
0'
0)
1,
b1010011101 -
0.
b0 1
02
1;
b1010011101 <
b1 =

#2910000
0!

#2920000
1!
1#
b101010 $
1%
b11011001111000011011011010011101 &
0,
b11011001111000011011011010011101 /
10
b101010 1
12
05
b0 6
09
0;

#2930000
0!

#2940000
1!
1'
1.
15
b101010 6
17
b11011001111000011011011010011101 8

#2950000
0!

#2960000
1!
1)
19
b10 =

#2970000
0!

#2980000
1!
0#
b0 $
0%
b0 &
0'
0)
1,
0.
b0 /
00
b0 1
02
1;
b1 =

#2990000
0!

#3000000
1!
1#
b1100100111 $
1%
b10100101010110000001001001110 &
0,
b10100101010110000001001001110 /
10
b1100100111 1
12
05
b0 6
07
b0 8
09
0;

#3010000
0!

#3020000
1!
1'
1.
15
b1100100111 6
17
b10100101010110000001001001110 8

#3030000
0!

#3040000
1!
1)
19
b10 =

#3050000
0!

#3060000
1!
0#
b0 $
0%
b0 &
0'
0)
1,
0.
b0 /
00
b0 1
02
1;
b1 =

#3070000
0!

#3080000
1!
1#
b1011011111 $
0,
b1011011111 1
12
05
b0 6
07
b0 8
09
0;

#3090000
0!

#3100000
1!
1'
1.
15
b1011011111 6

#3110000
0!

#3120000
1!
1)
b1011011111 *
19
b10 =

#3130000
0!

#3140000
1!
0#
b0 $
0'
0)
1,
b1011011111 -
0.
b0 1
02
1;
b1011011111 <
b1 =

#3150000
0!

#3160000
1!
1#
b100110011 $
0,
b100110011 1
12
05
b0 6
09
0;

#3170000
0!

#3180000
1!
1'
1.
15
b100110011 6

#3190000
0!

#3200000
1!
1)
b100110011 *
19
b10 =

#3210000
0!

#3220000
1!
0#
b0 $
0'
0)
1,
b100110011 -
0.
b0 1
02
1;
b100110011 <
b1 =

#3230000
0!

#3240000
1!
1#
b1010111100 $
1%
b111001100010110100011010000101 &
0,
b111001100010110100011010000101 /
10
b1010111100 1
12
05
b0 6
09
0;

#3250000
0!

#3260000
1!
1'
1.
15
b1010111100 6
17
b111001100010110100011010000101 8

#3270000
0!

#3280000
1!
1)
19
b10 =

#3290000
0!

#3300000
1!
0#
b0 $
0%
b0 &
0'
0)
1,
0.
b0 /
00
b0 1
02
1;
b1 =

#3310000
0!

#3320000
1!
1#
b1111000010 $
1%
b11000110100010100010110101001000 &
0,
b11000110100010100010110101001000 /
10
b1111000010 1
12
05
b0 6
07
b0 8
09
0;

#3330000
0!

#3340000
1!
1'
1.
15
b1111000010 6
17
b11000110100010100010110101001000 8

#3350000
0!

#3360000
1!
1)
19
b10 =

#3370000
0!

#3380000
1!
0#
b0 $
0%
b0 &
0'
0)
1,
0.
b0 /
00
b0 1
02
1;
b1 =

#3390000
0!

#3400000
1!
1#
b1111010111 $
0,
b1111010111 1
12
05
b0 6
07
b0 8
09
0;

#3410000
0!

#3420000
1!
1'
1.
15
b1111010111 6

#3430000
0!

#3440000
1!
1)
b1111010111 *
19
b10 =

#3450000
0!

#3460000
1!
0#
b0 $
0'
0)
1,
b1111010111 -
0.
b0 1
02
1;
b1111010111 <
b1 =

#3470000
0!

#3480000
1!
1#
b1100001101 $
0,
b1100001101 1
12
05
b0 6
09
0;

#3490000
0!

#3500000
1!
1'
1.
15
b1100001101 6

#3510000
0!

#3520000
1!
1)
b1100001101 *
19
b10 =

#3530000
0!

#3540000
1!
0#
b0 $
0'
0)
1,
b1100001101 -
0.
b0 1
02
1;
b1100001101 <
b1 =

#3550000
0!

#3560000
1!
1#
b101101101 $
1%
b11100101110111010011000100001011 &
0,
b11100101110111010011000100001011 /
10
b101101101 1
12
05
b0 6
09
0;

#3570000
0!

#3580000
1!
1'
1.
15
b101101101 6
17
b11100101110111010011000100001011 8

#3590000
0!

#3600000
1!
1)
19
b10 =

#3610000
0!

#3620000
1!
0#
b0 $
0%
b0 &
0'
0)
1,
0.
b0 /
00
b0 1
02
1;
b1 =

#3630000
0!

#3640000
1!
1#
b1011111110 $
0,
b1011111110 1
12
05
b0 6
07
b0 8
09
0;

#3650000
0!

#3660000
1!
1'
1.
15
b1011111110 6

#3670000
0!

#3680000
1!
1)
b1011111110 *
19
b10 =

#3690000
0!

#3700000
1!
0#
b0 $
0'
0)
1,
b1011111110 -
0.
b0 1
02
1;
b1011111110 <
b1 =

#3710000
0!

#3720000
1!
1#
b1011000100 $
0,
b1011000100 1
12
05
b0 6
09
0;

#3730000
0!

#3740000
1!
1'
1.
15
b1011000100 6

#3750000
0!

#3760000
1!
1)
b1011000100 *
19
b10 =

#3770000
0!

#3780000
1!
0#
b0 $
0'
0)
1,
b1011000100 -
0.
b0 1
02
1;
b1011000100 <
b1 =

#3790000
0!

#3800000
1!
1#
b1001010 $
0,
b1001010 1
12
05
b0 6
09
0;

#3810000
0!

#3820000
1!
1'
1.
15
b1001010 6

#3830000
0!

#3840000
1!
1)
b1001010 *
19
b10 =

#3850000
0!

#3860000
1!
0#
b0 $
0'
0)
1,
b1001010 -
0.
b0 1
02
1;
b1001010 <
b1 =

#3870000
0!

#3880000
1!
1#
b100110010 $
0,
b100110010 1
12
05
b0 6
09
0;

#3890000
0!

#3900000
1!
1'
1.
15
b100110010 6

#3910000
0!

#3920000
1!
1)
b100110010 *
19
b10 =

#3930000
0!

#3940000
1!
0#
b0 $
0'
0)
1,
b100110010 -
0.
b0 1
02
1;
b100110010 <
b1 =

#3950000
0!

#3960000
1!
1#
b1011001111 $
0,
b1011001111 1
12
05
b0 6
09
0;

#3970000
0!

#3980000
1!
1'
1.
15
b1011001111 6

#3990000
0!

#4000000
1!
1)
b1011001111 *
19
b10 =

#4010000
0!

#4020000
1!
0#
b0 $
0'
0)
1,
b1011001111 -
0.
b0 1
02
1;
b1011001111 <
b1 =

#4030000
0!

#4040000
1!
1#
b111011011 $
0,
b111011011 1
12
05
b0 6
09
0;

#4050000
0!

#4060000
1!
1'
1.
15
b111011011 6

#4070000
0!

#4080000
1!
1)
b111011011 *
19
b10 =

#4090000
0!

#4100000
1!
0#
b0 $
0'
0)
1,
b111011011 -
0.
b0 1
02
1;
b111011011 <
b1 =

#4110000
0!

#4120000
1!
1#
b1011001001 $
1%
b100101000011110101010111111110 &
0,
b100101000011110101010111111110 /
10
b1011001001 1
12
05
b0 6
09
0;

#4130000
0!

#4140000
1!
1'
1.
15
b1011001001 6
17
b100101000011110101010111111110 8

#4150000
0!

#4160000
1!
1)
19
b10 =

#4170000
0!

#4180000
1!
0#
b0 $
0%
b0 &
0'
0)
1,
0.
b0 /
00
b0 1
02
1;
b1 =

#4190000
0!

#4200000
1!
1#
b111100110 $
1%
b11011100010110101101111100011011 &
0,
b11011100010110101101111100011011 /
10
b111100110 1
12
05
b0 6
07
b0 8
09
0;

#4210000
0!

#4220000
1!
1'
1.
15
b111100110 6
17
b11011100010110101101111100011011 8

#4230000
0!

#4240000
1!
1)
19
b10 =

#4250000
0!

#4260000
1!
0#
b0 $
0%
b0 &
0'
0)
1,
0.
b0 /
00
b0 1
02
1;
b1 =

#4270000
0!

#4280000
1!
1#
b1001111010 $
1%
b11101001011111011011011001101100 &
0,
b11101001011111011011011001101100 /
10
b1001111010 1
12
05
b0 6
07
b0 8
09
0;

#4290000
0!

#4300000
1!
1'
1.
15
b1001111010 6
17
b11101001011111011011011001101100 8

#4310000
0!

#4320000
1!
1)
19
b10 =

#4330000
0!

#4340000
1!
0#
b0 $
0%
b0 &
0'
0)
1,
0.
b0 /
00
b0 1
02
1;
b1 =

#4350000
0!

